%!PS-Adobe-3.0 
%%Creator: MATLAB, The MathWorks, Inc. Version 8.1.0.604 (R2013a). Operating System: Linux 3.19.0-30-generic #34~14.04.1-Ubuntu SMP Fri Oct 2 22:09:39 UTC 2015 x86_64.
%%Title: ./align.eps
%%CreationDate: 10/21/2015  11:58:30
%%DocumentNeededFonts: Helvetica
%%DocumentProcessColors: Cyan Magenta Yellow Black
%%LanguageLevel: 2
%%Pages: (atend)
%%BoundingBox: (atend)
%%EndComments

%%BeginProlog
% MathWorks dictionary
/MathWorks 160 dict begin
% definition operators
/bdef {bind def} bind def
/ldef {load def} bind def
/xdef {exch def} bdef
/xstore {exch store} bdef
% operator abbreviations
/c  /clip ldef
/cc /concat ldef
/cp /closepath ldef
/gr /grestore ldef
/gs /gsave ldef
/mt /moveto ldef
/np /newpath ldef
/cm /currentmatrix ldef
/sm /setmatrix ldef
/rm /rmoveto ldef
/rl /rlineto ldef
/s {show newpath} bdef
/sc {setcmykcolor} bdef
/sr /setrgbcolor ldef
/sg /setgray ldef
/w /setlinewidth ldef
/j /setlinejoin ldef
/cap /setlinecap ldef
/rc {rectclip} bdef
/rf {rectfill} bdef
% page state control
/pgsv () def
/bpage {/pgsv save def} bdef
/epage {pgsv restore} bdef
/bplot /gsave ldef
/eplot {stroke grestore} bdef
% orientation switch
/portraitMode 0 def /landscapeMode 1 def /rotateMode 2 def
% coordinate system mappings
/dpi2point 0 def
% font control
/FontSize 0 def
/FMS {/FontSize xstore findfont [FontSize 0 0 FontSize neg 0 0]
  makefont setfont} bdef
/reencode {exch dup where {pop load} {pop StandardEncoding} ifelse
  exch dup 3 1 roll findfont dup length dict begin
  { 1 index /FID ne {def}{pop pop} ifelse } forall
  /Encoding exch def currentdict end definefont pop} bdef
/isroman {findfont /CharStrings get /Agrave known} bdef
/FMSR {3 1 roll 1 index dup isroman {reencode} {pop pop} ifelse
  exch FMS} bdef
/csm {1 dpi2point div -1 dpi2point div scale neg translate
 dup landscapeMode eq {pop -90 rotate}
  {rotateMode eq {90 rotate} if} ifelse} bdef
% line types: solid, dotted, dashed, dotdash
/SO { [] 0 setdash } bdef
/DO { [.5 dpi2point mul 4 dpi2point mul] 0 setdash } bdef
/DA { [6 dpi2point mul] 0 setdash } bdef
/DD { [.5 dpi2point mul 4 dpi2point mul 6 dpi2point mul 4
  dpi2point mul] 0 setdash } bdef
% macros for lines and objects
/L {lineto stroke} bdef
/MP {3 1 roll moveto 1 sub {rlineto} repeat} bdef
/AP {{rlineto} repeat} bdef
/PDlw -1 def
/W {/PDlw currentlinewidth def setlinewidth} def
/PP {closepath eofill} bdef
/DP {closepath stroke} bdef
/MR {4 -2 roll moveto dup  0 exch rlineto exch 0 rlineto
  neg 0 exch rlineto closepath} bdef
/FR {MR stroke} bdef
/PR {MR fill} bdef
/L1i {{currentfile picstr readhexstring pop} image} bdef
/tMatrix matrix def
/MakeOval {newpath tMatrix currentmatrix pop translate scale
0 0 1 0 360 arc tMatrix setmatrix} bdef
/FO {MakeOval stroke} bdef
/PO {MakeOval fill} bdef
/PD {currentlinewidth 2 div 0 360 arc fill
   PDlw -1 eq not {PDlw w /PDlw -1 def} if} def
/FA {newpath tMatrix currentmatrix pop translate scale
  0 0 1 5 -2 roll arc tMatrix setmatrix stroke} bdef
/PA {newpath tMatrix currentmatrix pop	translate 0 0 moveto scale
  0 0 1 5 -2 roll arc closepath tMatrix setmatrix fill} bdef
/FAn {newpath tMatrix currentmatrix pop translate scale
  0 0 1 5 -2 roll arcn tMatrix setmatrix stroke} bdef
/PAn {newpath tMatrix currentmatrix pop translate 0 0 moveto scale
  0 0 1 5 -2 roll arcn closepath tMatrix setmatrix fill} bdef
/vradius 0 def /hradius 0 def /lry 0 def
/lrx 0 def /uly 0 def /ulx 0 def /rad 0 def
/MRR {/vradius xdef /hradius xdef /lry xdef /lrx xdef /uly xdef
  /ulx xdef newpath tMatrix currentmatrix pop ulx hradius add uly
  vradius add translate hradius vradius scale 0 0 1 180 270 arc 
  tMatrix setmatrix lrx hradius sub uly vradius add translate
  hradius vradius scale 0 0 1 270 360 arc tMatrix setmatrix
  lrx hradius sub lry vradius sub translate hradius vradius scale
  0 0 1 0 90 arc tMatrix setmatrix ulx hradius add lry vradius sub
  translate hradius vradius scale 0 0 1 90 180 arc tMatrix setmatrix
  closepath} bdef
/FRR {MRR stroke } bdef
/PRR {MRR fill } bdef
/MlrRR {/lry xdef /lrx xdef /uly xdef /ulx xdef /rad lry uly sub 2 div def
  newpath tMatrix currentmatrix pop ulx rad add uly rad add translate
  rad rad scale 0 0 1 90 270 arc tMatrix setmatrix lrx rad sub lry rad
  sub translate rad rad scale 0 0 1 270 90 arc tMatrix setmatrix
  closepath} bdef
/FlrRR {MlrRR stroke } bdef
/PlrRR {MlrRR fill } bdef
/MtbRR {/lry xdef /lrx xdef /uly xdef /ulx xdef /rad lrx ulx sub 2 div def
  newpath tMatrix currentmatrix pop ulx rad add uly rad add translate
  rad rad scale 0 0 1 180 360 arc tMatrix setmatrix lrx rad sub lry rad
  sub translate rad rad scale 0 0 1 0 180 arc tMatrix setmatrix
  closepath} bdef
/FtbRR {MtbRR stroke } bdef
/PtbRR {MtbRR fill } bdef
/stri 6 array def /dtri 6 array def
/smat 6 array def /dmat 6 array def
/tmat1 6 array def /tmat2 6 array def /dif 3 array def
/asub {/ind2 exch def /ind1 exch def dup dup
  ind1 get exch ind2 get sub exch } bdef
/tri_to_matrix {
  2 0 asub 3 1 asub 4 0 asub 5 1 asub
  dup 0 get exch 1 get 7 -1 roll astore } bdef
/compute_transform {
  dmat dtri tri_to_matrix tmat1 invertmatrix 
  smat stri tri_to_matrix tmat2 concatmatrix } bdef
/ds {stri astore pop} bdef
/dt {dtri astore pop} bdef
/db {2 copy /cols xdef /rows xdef mul dup 3 mul string
  currentfile 
  3 index 0 eq {/ASCIIHexDecode filter}
  {/ASCII85Decode filter 3 index 2 eq {/RunLengthDecode filter} if }
  ifelse exch readstring pop
  dup 0 3 index getinterval /rbmap xdef
  dup 2 index dup getinterval /gbmap xdef
  1 index dup 2 mul exch getinterval /bbmap xdef pop pop}bdef
/it {gs np dtri aload pop moveto lineto lineto cp c
  cols rows 8 compute_transform 
  rbmap gbmap bbmap true 3 colorimage gr}bdef
/il {newpath moveto lineto stroke}bdef
currentdict end def
%%EndProlog

%%BeginSetup
MathWorks begin

0 cap

end
%%EndSetup

%%Page: 1 1
%%BeginPageSetup
%%PageBoundingBox:    84   316   509   475
MathWorks begin
bpage
%%EndPageSetup

%%BeginObject: obj1
bplot

/dpi2point 12 def
portraitMode 0780 5712 csm

  236     2  5093  1918 rc
85 dict begin %Colortable dictionary
/c0 { 0.000000 0.000000 0.000000 sr} bdef
/c1 { 1.000000 1.000000 1.000000 sr} bdef
/c2 { 0.900000 0.000000 0.000000 sr} bdef
/c3 { 0.000000 0.820000 0.000000 sr} bdef
/c4 { 0.000000 0.000000 0.800000 sr} bdef
/c5 { 0.910000 0.820000 0.320000 sr} bdef
/c6 { 1.000000 0.260000 0.820000 sr} bdef
/c7 { 0.000000 0.820000 0.820000 sr} bdef
c0
1 j
1 sg
   0    0 5761 1921 rf
6 w
0 1459 4464 0 0 -1459 749 1603 4 MP
PP
-4464 0 0 1459 4464 0 0 -1459 749 1603 5 MP stroke
4 w
DO
0 sg
 749 1603 mt  749  144 L
 749  144 mt  749  144 L
1493 1603 mt 1493  144 L
1493  144 mt 1493  144 L
2237 1603 mt 2237  144 L
2237  144 mt 2237  144 L
2981 1603 mt 2981  144 L
2981  144 mt 2981  144 L
3725 1603 mt 3725  144 L
3725  144 mt 3725  144 L
4469 1603 mt 4469  144 L
4469  144 mt 4469  144 L
5213 1603 mt 5213  144 L
5213  144 mt 5213  144 L
 749 1481 mt 5213 1481 L
5213 1481 mt 5213 1481 L
 749 1259 mt 5213 1259 L
5213 1259 mt 5213 1259 L
 749 1038 mt 5213 1038 L
5213 1038 mt 5213 1038 L
 749  816 mt 5213  816 L
5213  816 mt 5213  816 L
 749  594 mt 5213  594 L
5213  594 mt 5213  594 L
 749  373 mt 5213  373 L
5213  373 mt 5213  373 L
 749  151 mt 5213  151 L
5213  151 mt 5213  151 L
SO
6 w
 749 1603 mt 5213 1603 L
 749  144 mt 5213  144 L
 749 1603 mt  749  144 L
5213 1603 mt 5213  144 L
 749 1603 mt 5213 1603 L
 749 1603 mt  749  144 L
 749 1603 mt  749 1558 L
 749  144 mt  749  188 L
%%IncludeResource: font Helvetica
/Helvetica /ISOLatin1Encoding 120 FMSR

 716 1748 mt 
(0) s
1493 1603 mt 1493 1558 L
1493  144 mt 1493  188 L
1460 1748 mt 
(2) s
2237 1603 mt 2237 1558 L
2237  144 mt 2237  188 L
2204 1748 mt 
(4) s
2981 1603 mt 2981 1558 L
2981  144 mt 2981  188 L
2948 1748 mt 
(6) s
3725 1603 mt 3725 1558 L
3725  144 mt 3725  188 L
3692 1748 mt 
(8) s
4469 1603 mt 4469 1558 L
4469  144 mt 4469  188 L
4403 1748 mt 
(10) s
5213 1603 mt 5213 1558 L
5213  144 mt 5213  188 L
5147 1748 mt 
(12) s
 749 1481 mt  793 1481 L
5213 1481 mt 5168 1481 L
 454 1525 mt 
( 0.0y) s
 749 1259 mt  793 1259 L
5213 1259 mt 5168 1259 L
 454 1303 mt 
( 0.2y) s
 749 1038 mt  793 1038 L
5213 1038 mt 5168 1038 L
 454 1082 mt 
( 0.4y) s
 749  816 mt  793  816 L
5213  816 mt 5168  816 L
 454  860 mt 
( 0.6y) s
 749  594 mt  793  594 L
5213  594 mt 5168  594 L
 454  638 mt 
( 0.8y) s
 749  373 mt  793  373 L
5213  373 mt 5168  373 L
 454  417 mt 
( 1.0y) s
 749  151 mt  793  151 L
5213  151 mt 5168  151 L
 454  195 mt 
( 1.2y) s
 749 1603 mt 5213 1603 L
 749  144 mt 5213  144 L
 749 1603 mt  749  144 L
5213 1603 mt 5213  144 L
gs 749 144 4465 1460 rc
/c8 { 0.000000 0.000000 1.000000 sr} bdef
c8
4 0 4 0 4 0 3 0 4 0 4 0 4 0 3 0 
4 0 4 0 3 0 4 0 4 0 4 0 3 0 4 0 
4 0 3 1 4 0 4 0 4 0 3 0 4 0 4 0 
3 1 4 0 4 0 4 0 3 0 4 1 4 0 4 0 
3 0 4 0 4 1 3 0 4 0 4 0 4 0 3 0 
4 0 4 0 3 0 4 0 4 1 4 0 3 0 4 0 
4 0 3 0 4 0 4 0 4 0 3 0 4 0 4 0 
4 0 3 0 4 0 4 0 3 0 4 0 4 0 4 0 
3 0 4 0 4 0 3 0 4 0 4 0 4 0 3 0 
4 0 4 0 3 0 4 0 4 0 4 0 3 0 4 0 
4 0 4 0 3 0 4 0 4 0 3 0 4 0 4 0 
4 0 3 0 4 0 4 0 3 0 4 0 4 0 4 0 
3 0 4 0 4 0 3 0 4 0 4 0 4 0 3 0 
4 0 4 0 4 0 3 0 4 0 4 0 3 0 4 0 
4 0 4 0 3 0 4 0 4 0 3 0 4 0 4 0 
4 0 3 0 4 0 4 0 3 0 4 0 4 0 4 0 
3 0 4 0 4 0 4 0 3 0 4 0 4 0 3 0 
4 0 4 0 4 0 3 0 4 0 4 0 3 0 4 0 
4 0 4 0 3 0 4 0 4 0 3 0 4 0 4 0 
4 0 3 0 4 0 4 0 4 0 3 0 4 0 4 1 
3 0 4 0 4 0 4 0 3 0 4 0 4 0 3 0 
4 0 4 0 4 0 3 0 4 0 4 0 3 0 4 0 
4 0 4 0 3 0 4 0 4 0 4 0 3 0 4 0 
4 0 3 0 4 0 4 0 4 0 3 0 4 0 4 0 
3 0 4 0 4 0 4 0 3 0 4 0 4 0 3 0 
4 0 4 0 4 0 3 0 4 0 4 0 4 0 3 0 
4 0 4 0 3 0 4 0 4 0 4 0 3 0 4 0 
4 0 3 0 4 0 4 0 4 0 3 0 4 0 4 0 
3 0 4 0 4 0 4 0 3 0 4 0 4 0 4 0 
3 0 4 0 4 0 3 0 4 0 4 0 4 0 3 0 
4 0 4 0 3 0 4 0 4 0 4 0 3 0 4 0 
4 0 3 0 4 0 4 0 4 0 3 0 4 0 4 0 
4 0 3 0 4 0 4 0 3 0 4 0 4 0 4 0 
3 0 4 0 4 0 3 0 4 0 4 0 4 0 3 0 
4 0 4 0 3 0 4 0 4 0 4 0 3 0 4 0 
4 0 4 0 3 0 4 0 4 0 3 0 4 0 4 0 
4 0 3 0 4 0 4 0 3 0 4 0 4 0 4 0 
3 0 4 0 4 0 4100 1473 300 MP stroke
3 0 4 0 4 0 4 0 3 0 4 0 4 0 4 0 
3 0 4 0 4 0 3 0 4 0 4 0 4 0 3 0 
4 0 4 0 3 0 4 0 4 0 4 0 3 0 4 0 
4 0 3 0 4 0 4 0 4 0 3 0 4 0 4 0 
4 0 3 0 4 1 4 0 3 0 4 0 4 0 4 0 
3 0 4 0 4 0 3 0 4 0 4 0 4 0 3 0 
4 0 4 0 3 0 4 0 4 0 4 0 3 0 4 0 
4 0 4 0 3 0 4 0 4 0 3 0 4 0 4 0 
4 0 3 0 4 0 4 0 3 0 4 0 4 0 4 0 
3 0 4 0 4 0 3 0 4 0 4 0 4 0 3 0 
4 -1 4 0 4 0 3 0 4 0 4 0 3 0 4 0 
4 0 4 0 3 0 4 0 4 0 3 0 4 0 4 0 
4 0 3 0 4 0 4 0 3 0 4 0 4 0 4 0 
3 0 4 0 4 0 4 0 3 0 4 0 4 0 3 0 
4 0 4 0 4 0 3 0 4 0 4 0 3 0 4 0 
4 0 4 0 3 0 4 0 4 0 3 0 4 0 4 0 
4 0 3 0 4 0 4 0 4 0 3 0 4 0 4 0 
3 0 4 0 4 0 4 0 3 0 4 0 4 0 3 0 
4 0 4 0 4 0 3 0 4 0 4 0 3 0 4 0 
4 0 4 0 3 0 4 0 4 0 4 0 3 0 4 0 
4 0 3 0 4 0 4 0 4 0 3 0 4 0 4 0 
3 0 4 0 4 0 4 0 3 0 4 0 4 0 3 0 
4 0 4 0 4 0 3 0 4 0 4 0 4 0 3 0 
4 -1 4 0 3 0 4 0 4 0 4 0 3 0 4 0 
4 0 3 0 4 0 4 0 4 0 3 0 4 0 4 0 
3 0 4 0 4 0 4 0 3 0 4 0 4 0 4 0 
3 0 4 0 4 0 3 0 4 0 4 0 4 0 3 0 
4 0 4 0 3 0 4 0 4 0 4 0 3 0 4 0 
4 0 3 -1 4 0 4 0 4 0 3 0 4 0 4 0 
4 0 3 0 4 0 4 0 3 0 4 0 4 0 4 0 
3 0 4 0 4 0 3 0 4 0 4 0 4 0 3 0 
4 0 4 0 3 0 4 0 4 0 4 0 3 0 4 -1 
4 0 4 0 3 0 4 0 4 0 3 0 4 0 4 0 
4 0 3 0 4 0 4 0 3 0 4 0 4 0 4 0 
3 0 4 0 4 0 3 0 4 0 4 0 4 0 3 0 
4 -1 4 0 4 0 3 0 4 0 4 0 3 0 4 0 
4 0 4 0 3 0 4 0 4 0 3 0 4 0 4 0 
4 0 3 0 4 0 2988 1477 300 MP stroke
4 0 3 0 4 -1 4 0 4 0 3 0 4 0 4 0 
4 0 3 0 4 0 4 0 3 0 4 0 4 0 4 0 
3 0 4 0 4 0 3 0 4 0 4 0 4 -1 3 0 
4 0 4 0 3 0 4 0 4 0 4 0 3 0 4 0 
4 0 4 0 3 0 4 0 4 0 3 0 4 0 4 0 
4 0 3 0 4 0 4 -1 3 0 4 0 4 0 4 0 
3 0 4 0 4 0 3 0 4 0 4 0 4 0 3 0 
4 0 4 0 4 0 3 0 4 0 4 0 3 0 4 0 
4 0 4 0 3 0 4 0 4 0 3 0 4 0 4 0 
4 0 3 0 4 -1 4 0 3 0 4 0 4 0 4 0 
3 0 4 0 4 0 4 0 3 0 4 0 4 0 3 0 
4 0 4 0 4 0 3 0 4 0 4 0 3 0 4 0 
4 0 4 0 3 0 4 0 4 0 3 0 4 0 4 0 
4 0 3 0 4 0 4 0 4 0 3 0 4 0 4 0 
3 0 4 0 4 0 4 0 3 0 4 0 4 0 3 0 
4 0 4 0 4 0 3 0 4 0 4 0 3 0 4 0 
4 0 4 0 3 0 4 0 4 0 4 0 3 0 4 0 
4 0 3 0 4 0 4 0 4 0 3 0 4 0 4 0 
3 0 4 0 4 0 4 0 3 0 4 0 4 0 3 0 
4 0 4 0 4 0 3 0 4 0 4 0 4 0 3 0 
4 0 4 0 3 0 4 0 4 0 4 0 3 0 4 0 
4 0 3 0 4 0 4 0 4 0 3 0 4 0 4 0 
3 0 4 0 4 0 4 1 3 0 4 0 4 0 4 0 
3 0 4 0 4 0 3 0 4 0 4 1 4 0 3 0 
4 0 4 0 3 0 4 0 4 0 4 0 3 0 4 0 
4 0 3 0 4 0 4 0 4 0 3 0 4 0 4 0 
4 0 3 0 4 0 4 0 3 0 4 1 4 0 4 0 
3 0 4 0 4 0 3 0 4 0 4 0 4 1 3 0 
4 0 4 0 3 0 4 0 4 0 4 0 3 0 4 1 
4 0 4 0 3 0 4 0 4 0 3 0 4 0 4 0 
4 0 3 0 4 0 4 0 3 0 4 0 4 0 4 0 
3 0 4 0 4 0 3 0 4 0 4 0 4 0 3 0 
4 0 4 1 4 0 3 0 4 0 4 0 3 0 4 0 
4 0 4 0 3 0 4 0 4 0 3 0 4 0 4 0 
4 0 3 0 4 0 4 0 3 0 4 0 4 0 4 0 
3 0 4 0 4 0 4 0 3 0 4 0 4 0 3 0 
4 0 4 0 4 0 3 0 4 0 4 0 3 0 4 0 
4 0 4 0 3 0 1876 1475 300 MP stroke
4 0 4 0 3 0 4 0 4 0 4 0 3 0 4 0 
4 0 4 0 3 0 4 0 4 0 3 0 4 0 4 0 
4 0 3 0 4 0 4 0 3 0 4 0 4 0 4 0 
3 0 4 0 4 0 3 0 4 0 4 0 4 0 3 0 
4 0 4 1 4 0 3 0 4 0 4 0 3 0 4 0 
4 0 4 0 3 0 4 0 4 0 3 0 4 0 4 0 
4 0 3 0 4 0 4 0 3 0 4 0 4 0 4 0 
3 0 4 0 4 0 4 0 3 0 4 0 4 0 3 0 
4 0 4 0 4 0 3 0 4 0 4 0 3 0 4 0 
4 0 4 0 3 0 4 0 4 0 3 0 4 0 4 0 
4 0 3 1 4 0 4 0 4 0 3 0 4 0 4 0 
3 0 4 0 4 0 4 0 3 0 4 -1 4 0 3 0 
4 0 4 0 4 0 3 0 4 0 4 1 3 1 4 1 
4 2 4 1 3 2 4 1 4 2 4 2 3 2 4 2 
4 2 3 1 4 1 4 2 4 1 3 3 4 2 4 3 
3 3 4 3 4 3 4 3 3 4 4 3 4 4 3 4 
4 3 4 4 4 5 3 4 4 4 4 5 4 4 3 5 
4 5 4 5 3 5 4 5 4 5 4 5 3 6 4 6 
4 5 3 6 4 6 4 6 4 6 3 6 4 7 4 6 
3 7 4 7 4 6 4 7 3 7 4 7 4 8 4 7 
3 8 4 7 4 8 3 8 4 8 4 8 4 8 3 8 
4 9 4 8 3 9 4 8 4 9 4 9 3 9 4 9 
4 10 3 9 4 9 4 10 4 10 3 10 4 9 4 11 
4 10 3 10 4 10 4 11 3 11 4 10 4 11 4 11 
3 11 4 11 4 11 3 12 4 11 4 11 4 11 3 11 
4 11 4 12 3 11 4 11 4 11 4 11 3 10 4 11 
4 10 4 11 3 10 4 10 4 10 3 10 4 10 4 10 
4 9 3 10 4 9 4 9 3 9 4 9 4 9 4 9 
3 9 4 8 4 9 3 8 4 9 4 8 4 8 3 8 
4 8 4 7 4 8 3 8 4 7 4 7 3 8 4 7 
4 7 4 6 3 7 4 7 4 6 3 7 4 6 4 6 
4 6 3 6 4 6 4 5 3 6 4 5 4 6 4 5 
3 5 4 5 4 5 4 5 3 4 4 5 4 4 3 5 
4 4 4 4 4 4 3 4 4 4 4 3 3 4 4 3 
4 4 4 3 3 3 4 3 4 3 3 3 4 2 4 3 
4 2 3 3 4 2 4 2 4 2 3 2 4 2 4 1 
3 2 4 1 4 2 4 1 3 1 4 1 4 1 3 1 
4 0 4 1 4 0 763 266 300 MP stroke
3 1 4 0 4 0 3 -1 749 266 5 MP stroke
DA
12 w
/c9 { 0.000000 0.500000 0.000000 sr} bdef
c9
4 0 4 0 4 0 3 0 4 0 4 0 4 0 3 0 
4 0 4 0 3 0 4 0 4 0 4 0 3 0 4 -1 
4 0 3 0 4 0 4 0 4 -1 3 0 4 0 4 -1 
3 0 4 0 4 0 4 -1 3 0 4 -1 4 0 4 0 
3 0 4 0 4 0 3 0 4 0 4 0 4 0 3 0 
4 -1 4 0 3 0 4 0 4 0 4 0 3 0 4 0 
4 0 3 0 4 0 4 0 4 0 3 0 4 0 4 0 
4 0 3 0 4 0 4 0 3 0 4 0 4 0 4 0 
3 0 4 0 4 0 3 0 4 0 4 0 4 0 3 0 
4 0 4 0 3 0 4 0 4 0 4 0 3 0 4 0 
4 0 4 0 3 0 4 0 4 0 3 0 4 0 4 0 
4 0 3 0 4 0 4 0 3 0 4 0 4 0 4 0 
3 0 4 0 4 0 3 0 4 0 4 0 4 0 3 0 
4 0 4 0 4 0 3 0 4 0 4 0 3 0 4 0 
4 0 4 0 3 0 4 0 4 0 3 0 4 0 4 0 
4 0 3 0 4 0 4 0 3 0 4 0 4 0 4 0 
3 0 4 0 4 0 4 0 3 0 4 0 4 0 3 0 
4 0 4 0 4 0 3 0 4 0 4 0 3 0 4 0 
4 0 4 0 3 0 4 0 4 0 3 0 4 0 4 0 
4 0 3 0 4 0 4 0 4 0 3 0 4 0 4 0 
3 0 4 0 4 0 4 0 3 0 4 0 4 0 3 0 
4 0 4 0 4 0 3 0 4 0 4 0 3 0 4 0 
4 0 4 0 3 0 4 0 4 0 4 0 3 0 4 0 
4 0 3 0 4 0 4 0 4 0 3 0 4 0 4 0 
3 0 4 0 4 0 4 0 3 0 4 0 4 0 3 0 
4 0 4 0 4 0 3 0 4 0 4 0 4 0 3 0 
4 0 4 0 3 0 4 0 4 0 4 0 3 0 4 0 
4 0 3 0 4 0 4 0 4 0 3 0 4 0 4 0 
3 0 4 0 4 0 4 0 3 0 4 0 4 0 4 0 
3 0 4 0 4 0 3 1 4 0 4 0 4 0 3 0 
4 0 4 0 3 0 4 0 4 0 4 0 3 0 4 0 
4 0 3 0 4 0 4 0 4 0 3 0 4 0 4 0 
4 0 3 0 4 0 4 0 3 0 4 0 4 0 4 0 
3 0 4 0 4 0 3 0 4 0 4 0 4 0 3 0 
4 0 4 0 3 0 4 0 4 0 4 0 3 0 4 0 
4 0 4 0 3 0 4 0 4 0 3 0 4 0 4 0 
4 0 3 0 4 0 4 0 3 0 4 0 4 0 4 0 
3 0 4 0 4 0 4100 1478 300 MP stroke
3 0 4 0 4 0 4 0 3 0 4 0 4 0 4 0 
3 0 4 0 4 0 3 0 4 0 4 0 4 0 3 0 
4 0 4 0 3 0 4 0 4 0 4 0 3 0 4 0 
4 0 3 0 4 0 4 0 4 0 3 0 4 0 4 0 
4 0 3 0 4 0 4 0 3 0 4 0 4 0 4 0 
3 0 4 0 4 0 3 0 4 0 4 0 4 0 3 0 
4 0 4 0 3 0 4 0 4 0 4 0 3 0 4 0 
4 0 4 0 3 0 4 0 4 0 3 0 4 0 4 0 
4 0 3 0 4 0 4 0 3 0 4 0 4 0 4 0 
3 0 4 0 4 0 3 0 4 0 4 0 4 0 3 0 
4 0 4 0 4 0 3 0 4 0 4 0 3 0 4 0 
4 0 4 0 3 0 4 0 4 0 3 0 4 0 4 0 
4 0 3 0 4 0 4 0 3 0 4 0 4 1 4 0 
3 0 4 0 4 0 4 0 3 0 4 0 4 0 3 0 
4 0 4 0 4 0 3 0 4 0 4 0 3 0 4 0 
4 0 4 0 3 0 4 0 4 0 3 0 4 0 4 0 
4 0 3 0 4 0 4 0 4 0 3 0 4 0 4 0 
3 0 4 0 4 0 4 0 3 -1 4 0 4 0 3 0 
4 0 4 0 4 0 3 0 4 0 4 0 3 0 4 0 
4 0 4 0 3 0 4 0 4 0 4 0 3 0 4 0 
4 0 3 0 4 0 4 0 4 0 3 0 4 1 4 0 
3 0 4 0 4 0 4 0 3 0 4 0 4 0 3 0 
4 0 4 0 4 0 3 0 4 0 4 0 4 0 3 0 
4 0 4 0 3 0 4 0 4 0 4 0 3 0 4 0 
4 0 3 0 4 0 4 0 4 0 3 0 4 0 4 0 
3 0 4 0 4 0 4 0 3 0 4 0 4 0 4 0 
3 0 4 0 4 0 3 0 4 0 4 0 4 0 3 0 
4 0 4 0 3 0 4 0 4 0 4 0 3 0 4 0 
4 0 3 0 4 0 4 0 4 0 3 0 4 0 4 0 
4 0 3 0 4 0 4 0 3 0 4 0 4 0 4 0 
3 0 4 0 4 0 3 0 4 0 4 0 4 0 3 0 
4 0 4 0 3 0 4 0 4 0 4 0 3 0 4 0 
4 0 4 0 3 0 4 0 4 0 3 0 4 0 4 0 
4 0 3 0 4 0 4 0 3 0 4 0 4 0 4 0 
3 0 4 0 4 0 3 0 4 0 4 0 4 0 3 0 
4 0 4 0 4 0 3 0 4 0 4 0 3 1 4 0 
4 0 4 0 3 0 4 0 4 0 3 0 4 0 4 0 
4 0 3 0 4 0 2988 1476 300 MP stroke
4 0 3 0 4 0 4 0 4 0 3 0 4 0 4 0 
4 0 3 0 4 0 4 0 3 0 4 0 4 0 4 0 
3 0 4 0 4 0 3 0 4 0 4 0 4 0 3 0 
4 0 4 0 3 0 4 0 4 0 4 0 3 0 4 0 
4 0 4 0 3 0 4 0 4 0 3 0 4 0 4 0 
4 0 3 0 4 0 4 0 3 0 4 0 4 0 4 0 
3 0 4 0 4 0 3 0 4 0 4 0 4 0 3 -1 
4 0 4 0 4 0 3 0 4 0 4 0 3 0 4 0 
4 0 4 0 3 0 4 0 4 0 3 0 4 0 4 0 
4 0 3 0 4 0 4 0 3 0 4 0 4 0 4 0 
3 0 4 0 4 0 4 0 3 0 4 0 4 0 3 -1 
4 0 4 0 4 0 3 1 4 0 4 0 3 0 4 1 
4 0 4 0 3 0 4 0 4 1 3 0 4 0 4 0 
4 0 3 0 4 0 4 1 4 0 3 0 4 0 4 0 
3 0 4 0 4 0 4 0 3 0 4 0 4 0 3 0 
4 0 4 0 4 0 3 0 4 0 4 0 3 0 4 0 
4 0 4 0 3 0 4 0 4 0 4 0 3 0 4 0 
4 0 3 0 4 0 4 0 4 0 3 0 4 0 4 0 
3 0 4 0 4 0 4 0 3 0 4 0 4 0 3 0 
4 0 4 0 4 0 3 -1 4 -1 4 1 4 0 3 0 
4 1 4 0 3 0 4 1 4 0 4 0 3 1 4 0 
4 0 3 1 4 0 4 0 4 1 3 0 4 0 4 0 
3 1 4 0 4 0 4 0 3 0 4 1 4 0 4 0 
3 0 4 0 4 0 3 0 4 1 4 0 4 0 3 0 
4 0 4 0 3 0 4 0 4 0 4 0 3 0 4 0 
4 0 3 0 4 0 4 0 4 0 3 0 4 1 4 0 
4 0 3 0 4 0 4 0 3 0 4 0 4 0 4 0 
3 0 4 0 4 0 3 1 4 0 4 0 4 0 3 0 
4 0 4 0 3 0 4 0 4 0 4 0 3 0 4 1 
4 0 4 0 3 0 4 0 4 0 3 0 4 0 4 0 
4 0 3 0 4 0 4 1 3 0 4 0 4 0 4 0 
3 0 4 0 4 0 3 0 4 0 4 1 4 0 3 0 
4 0 4 0 4 0 3 0 4 0 4 0 3 0 4 0 
4 1 4 0 3 0 4 0 4 0 3 0 4 0 4 0 
4 0 3 0 4 1 4 0 3 0 4 0 4 0 4 0 
3 0 4 0 4 0 4 0 3 1 4 0 4 0 3 0 
4 0 4 0 4 0 3 0 4 0 4 1 3 0 4 0 
4 0 4 0 3 0 1876 1458 300 MP stroke
4 0 4 0 3 0 4 1 4 0 4 0 3 0 4 0 
4 0 4 0 3 0 4 0 4 1 3 0 4 0 4 0 
4 0 3 0 4 0 4 0 3 1 4 0 4 0 4 0 
3 0 4 0 4 0 3 0 4 1 4 0 4 0 3 0 
4 0 4 0 4 0 3 0 4 1 4 0 3 0 4 0 
4 0 4 0 3 0 4 1 4 0 3 0 4 0 4 0 
4 0 3 0 4 1 4 0 3 0 4 0 4 0 4 0 
3 0 4 1 4 0 4 0 3 0 4 0 4 0 3 1 
4 0 4 0 4 0 3 0 4 0 4 1 3 0 4 0 
4 0 4 0 3 0 4 0 4 1 3 0 4 0 4 0 
4 0 3 0 4 1 4 0 4 0 3 0 4 0 4 1 
3 0 4 0 4 0 4 0 3 0 4 0 4 1 3 0 
4 0 4 0 4 0 3 0 4 0 4 0 3 0 4 1 
4 0 4 0 3 0 4 0 4 0 4 1 3 0 4 0 
4 0 3 -1 4 -1 4 0 4 -1 3 0 4 0 4 1 
3 0 4 0 4 0 4 0 3 0 4 0 4 0 3 0 
4 -1 4 0 4 0 3 0 4 0 4 0 4 0 3 -1 
4 0 4 0 3 0 4 0 4 0 4 -1 3 0 4 0 
4 0 3 0 4 -1 4 0 4 0 3 0 4 0 4 0 
3 -1 4 0 4 0 4 0 3 0 4 -1 4 0 4 0 
3 0 4 -1 4 0 3 0 4 -1 4 0 4 0 3 -1 
4 0 4 -1 3 0 4 -1 4 0 4 0 3 -1 4 -1 
4 0 3 0 4 -5 4 0 4 1 3 1 4 -1 4 -2 
4 -1 3 -1 4 2 4 2 3 2 4 2 4 3 4 2 
3 3 4 2 4 3 3 3 4 3 4 3 4 3 3 4 
4 3 4 4 3 3 4 4 4 4 4 4 3 4 4 4 
4 5 4 4 3 5 4 4 4 5 3 5 4 5 4 5 
4 6 3 5 4 5 4 6 3 6 4 5 4 6 4 6 
3 7 4 6 4 6 3 7 4 6 4 7 4 7 3 7 
4 7 4 7 4 7 3 8 4 7 4 7 3 7 4 8 
4 6 4 7 3 7 4 7 4 6 3 6 4 6 4 6 
4 6 3 6 4 6 4 5 3 5 4 6 4 5 4 5 
3 5 4 5 4 4 4 5 3 5 4 4 4 4 3 5 
4 4 4 4 4 4 3 4 4 3 4 4 3 4 4 3 
4 3 4 3 3 3 4 3 4 3 3 3 4 3 4 2 
4 3 3 2 4 2 4 2 4 2 3 2 4 2 4 2 
3 1 4 2 4 1 4 1 3 1 4 1 4 1 3 1 
4 1 4 0 4 1 763 991 300 MP stroke
3 0 4 0 4 0 3 0 749 991 5 MP stroke
gr

12 w
c9
DA
0 sg
2767 1891 mt 
(Time [s]) s
 372 1524 mt  -90 rotate
(Distance [m], angle [rad]) s
90 rotate
 732 1646 mt 
( ) s
5197  186 mt 
( ) s
gs 749 144 4465 1460 rc
DD
6 w
0 -1459 2255 1603 2 MP stroke
gr

6 w
DD
1429  915 mt 
(S1) s
gs 749 144 4465 1460 rc
0 -1459 2556 1603 2 MP stroke
gr

2333  915 mt 
(S2) s
gs 749 144 4465 1460 rc
0 -1459 5027 1603 2 MP stroke
gr

3718  915 mt 
(S3) s
SO
1 sg
0 334 1512 0 0 -334 3642 538 4 MP
PP
-1512 0 0 334 1512 0 0 -334 3642 538 5 MP stroke
4 w
DO
SO
6 w
0 sg
3642  538 mt 5154  538 L
3642  204 mt 5154  204 L
3642  538 mt 3642  204 L
5154  538 mt 5154  204 L
3642  538 mt 5154  538 L
3642  538 mt 3642  204 L
3642  538 mt 5154  538 L
3642  204 mt 5154  204 L
3642  538 mt 3642  204 L
5154  538 mt 5154  204 L
4113  340 mt 
(exp_align) s
gs 3642 204 1513 335 rc
c8
362 0 3714 297 2 MP stroke
gr

c8
0 sg
4113  487 mt 
(exp_align_normals) s
gs 3642 204 1513 335 rc
DA
12 w
c9
362 0 3714 444 2 MP stroke
SO
6 w
gr

c9

end %%Color Dict

eplot
%%EndObject

epage
end

showpage

%%Trailer
%%BoundingBox:    84   316   509   475
%%Pages: 001
%%EOF
