%!PS-Adobe-3.0 
%%Creator: MATLAB, The MathWorks, Inc. Version 8.1.0.604 (R2013a). Operating System: Linux 3.19.0-30-generic #34~14.04.1-Ubuntu SMP Fri Oct 2 22:09:39 UTC 2015 x86_64.
%%Title: ./dist.eps
%%CreationDate: 10/21/2015  11:58:29
%%DocumentNeededFonts: Helvetica
%%DocumentProcessColors: Cyan Magenta Yellow Black
%%LanguageLevel: 2
%%Pages: (atend)
%%BoundingBox: (atend)
%%EndComments

%%BeginProlog
% MathWorks dictionary
/MathWorks 160 dict begin
% definition operators
/bdef {bind def} bind def
/ldef {load def} bind def
/xdef {exch def} bdef
/xstore {exch store} bdef
% operator abbreviations
/c  /clip ldef
/cc /concat ldef
/cp /closepath ldef
/gr /grestore ldef
/gs /gsave ldef
/mt /moveto ldef
/np /newpath ldef
/cm /currentmatrix ldef
/sm /setmatrix ldef
/rm /rmoveto ldef
/rl /rlineto ldef
/s {show newpath} bdef
/sc {setcmykcolor} bdef
/sr /setrgbcolor ldef
/sg /setgray ldef
/w /setlinewidth ldef
/j /setlinejoin ldef
/cap /setlinecap ldef
/rc {rectclip} bdef
/rf {rectfill} bdef
% page state control
/pgsv () def
/bpage {/pgsv save def} bdef
/epage {pgsv restore} bdef
/bplot /gsave ldef
/eplot {stroke grestore} bdef
% orientation switch
/portraitMode 0 def /landscapeMode 1 def /rotateMode 2 def
% coordinate system mappings
/dpi2point 0 def
% font control
/FontSize 0 def
/FMS {/FontSize xstore findfont [FontSize 0 0 FontSize neg 0 0]
  makefont setfont} bdef
/reencode {exch dup where {pop load} {pop StandardEncoding} ifelse
  exch dup 3 1 roll findfont dup length dict begin
  { 1 index /FID ne {def}{pop pop} ifelse } forall
  /Encoding exch def currentdict end definefont pop} bdef
/isroman {findfont /CharStrings get /Agrave known} bdef
/FMSR {3 1 roll 1 index dup isroman {reencode} {pop pop} ifelse
  exch FMS} bdef
/csm {1 dpi2point div -1 dpi2point div scale neg translate
 dup landscapeMode eq {pop -90 rotate}
  {rotateMode eq {90 rotate} if} ifelse} bdef
% line types: solid, dotted, dashed, dotdash
/SO { [] 0 setdash } bdef
/DO { [.5 dpi2point mul 4 dpi2point mul] 0 setdash } bdef
/DA { [6 dpi2point mul] 0 setdash } bdef
/DD { [.5 dpi2point mul 4 dpi2point mul 6 dpi2point mul 4
  dpi2point mul] 0 setdash } bdef
% macros for lines and objects
/L {lineto stroke} bdef
/MP {3 1 roll moveto 1 sub {rlineto} repeat} bdef
/AP {{rlineto} repeat} bdef
/PDlw -1 def
/W {/PDlw currentlinewidth def setlinewidth} def
/PP {closepath eofill} bdef
/DP {closepath stroke} bdef
/MR {4 -2 roll moveto dup  0 exch rlineto exch 0 rlineto
  neg 0 exch rlineto closepath} bdef
/FR {MR stroke} bdef
/PR {MR fill} bdef
/L1i {{currentfile picstr readhexstring pop} image} bdef
/tMatrix matrix def
/MakeOval {newpath tMatrix currentmatrix pop translate scale
0 0 1 0 360 arc tMatrix setmatrix} bdef
/FO {MakeOval stroke} bdef
/PO {MakeOval fill} bdef
/PD {currentlinewidth 2 div 0 360 arc fill
   PDlw -1 eq not {PDlw w /PDlw -1 def} if} def
/FA {newpath tMatrix currentmatrix pop translate scale
  0 0 1 5 -2 roll arc tMatrix setmatrix stroke} bdef
/PA {newpath tMatrix currentmatrix pop	translate 0 0 moveto scale
  0 0 1 5 -2 roll arc closepath tMatrix setmatrix fill} bdef
/FAn {newpath tMatrix currentmatrix pop translate scale
  0 0 1 5 -2 roll arcn tMatrix setmatrix stroke} bdef
/PAn {newpath tMatrix currentmatrix pop translate 0 0 moveto scale
  0 0 1 5 -2 roll arcn closepath tMatrix setmatrix fill} bdef
/vradius 0 def /hradius 0 def /lry 0 def
/lrx 0 def /uly 0 def /ulx 0 def /rad 0 def
/MRR {/vradius xdef /hradius xdef /lry xdef /lrx xdef /uly xdef
  /ulx xdef newpath tMatrix currentmatrix pop ulx hradius add uly
  vradius add translate hradius vradius scale 0 0 1 180 270 arc 
  tMatrix setmatrix lrx hradius sub uly vradius add translate
  hradius vradius scale 0 0 1 270 360 arc tMatrix setmatrix
  lrx hradius sub lry vradius sub translate hradius vradius scale
  0 0 1 0 90 arc tMatrix setmatrix ulx hradius add lry vradius sub
  translate hradius vradius scale 0 0 1 90 180 arc tMatrix setmatrix
  closepath} bdef
/FRR {MRR stroke } bdef
/PRR {MRR fill } bdef
/MlrRR {/lry xdef /lrx xdef /uly xdef /ulx xdef /rad lry uly sub 2 div def
  newpath tMatrix currentmatrix pop ulx rad add uly rad add translate
  rad rad scale 0 0 1 90 270 arc tMatrix setmatrix lrx rad sub lry rad
  sub translate rad rad scale 0 0 1 270 90 arc tMatrix setmatrix
  closepath} bdef
/FlrRR {MlrRR stroke } bdef
/PlrRR {MlrRR fill } bdef
/MtbRR {/lry xdef /lrx xdef /uly xdef /ulx xdef /rad lrx ulx sub 2 div def
  newpath tMatrix currentmatrix pop ulx rad add uly rad add translate
  rad rad scale 0 0 1 180 360 arc tMatrix setmatrix lrx rad sub lry rad
  sub translate rad rad scale 0 0 1 0 180 arc tMatrix setmatrix
  closepath} bdef
/FtbRR {MtbRR stroke } bdef
/PtbRR {MtbRR fill } bdef
/stri 6 array def /dtri 6 array def
/smat 6 array def /dmat 6 array def
/tmat1 6 array def /tmat2 6 array def /dif 3 array def
/asub {/ind2 exch def /ind1 exch def dup dup
  ind1 get exch ind2 get sub exch } bdef
/tri_to_matrix {
  2 0 asub 3 1 asub 4 0 asub 5 1 asub
  dup 0 get exch 1 get 7 -1 roll astore } bdef
/compute_transform {
  dmat dtri tri_to_matrix tmat1 invertmatrix 
  smat stri tri_to_matrix tmat2 concatmatrix } bdef
/ds {stri astore pop} bdef
/dt {dtri astore pop} bdef
/db {2 copy /cols xdef /rows xdef mul dup 3 mul string
  currentfile 
  3 index 0 eq {/ASCIIHexDecode filter}
  {/ASCII85Decode filter 3 index 2 eq {/RunLengthDecode filter} if }
  ifelse exch readstring pop
  dup 0 3 index getinterval /rbmap xdef
  dup 2 index dup getinterval /gbmap xdef
  1 index dup 2 mul exch getinterval /bbmap xdef pop pop}bdef
/it {gs np dtri aload pop moveto lineto lineto cp c
  cols rows 8 compute_transform 
  rbmap gbmap bbmap true 3 colorimage gr}bdef
/il {newpath moveto lineto stroke}bdef
currentdict end def
%%EndProlog

%%BeginSetup
MathWorks begin

0 cap

end
%%EndSetup

%%Page: 1 1
%%BeginPageSetup
%%PageBoundingBox:    81   276   509   509
MathWorks begin
bpage
%%EndPageSetup

%%BeginObject: obj1
bplot

/dpi2point 12 def
portraitMode 0780 6192 csm

  200    74  5129  2806 rc
86 dict begin %Colortable dictionary
/c0 { 0.000000 0.000000 0.000000 sr} bdef
/c1 { 1.000000 1.000000 1.000000 sr} bdef
/c2 { 0.900000 0.000000 0.000000 sr} bdef
/c3 { 0.000000 0.820000 0.000000 sr} bdef
/c4 { 0.000000 0.000000 0.800000 sr} bdef
/c5 { 0.910000 0.820000 0.320000 sr} bdef
/c6 { 1.000000 0.260000 0.820000 sr} bdef
/c7 { 0.000000 0.820000 0.820000 sr} bdef
c0
1 j
1 sg
   0    0 5761 2881 rf
6 w
0 2348 4464 0 0 -2348 749 2563 4 MP
PP
-4464 0 0 2348 4464 0 0 -2348 749 2563 5 MP stroke
4 w
DO
0 sg
 749 2563 mt  749  216 L
 749  216 mt  749  216 L
1493 2563 mt 1493  216 L
1493  216 mt 1493  216 L
2237 2563 mt 2237  216 L
2237  216 mt 2237  216 L
2981 2563 mt 2981  216 L
2981  216 mt 2981  216 L
3725 2563 mt 3725  216 L
3725  216 mt 3725  216 L
4469 2563 mt 4469  216 L
4469  216 mt 4469  216 L
5213 2563 mt 5213  216 L
5213  216 mt 5213  216 L
 749 2319 mt 5213 2319 L
5213 2319 mt 5213 2319 L
 749 2017 mt 5213 2017 L
5213 2017 mt 5213 2017 L
 749 1716 mt 5213 1716 L
5213 1716 mt 5213 1716 L
 749 1414 mt 5213 1414 L
5213 1414 mt 5213 1414 L
 749 1112 mt 5213 1112 L
5213 1112 mt 5213 1112 L
 749  810 mt 5213  810 L
5213  810 mt 5213  810 L
 749  508 mt 5213  508 L
5213  508 mt 5213  508 L
SO
6 w
 749 2563 mt 5213 2563 L
 749  215 mt 5213  215 L
 749 2563 mt  749  215 L
5213 2563 mt 5213  215 L
 749 2563 mt 5213 2563 L
 749 2563 mt  749  215 L
 749 2563 mt  749 2518 L
 749  216 mt  749  260 L
%%IncludeResource: font Helvetica
/Helvetica /ISOLatin1Encoding 120 FMSR

 716 2708 mt 
(0) s
1493 2563 mt 1493 2518 L
1493  216 mt 1493  260 L
1460 2708 mt 
(2) s
2237 2563 mt 2237 2518 L
2237  216 mt 2237  260 L
2204 2708 mt 
(4) s
2981 2563 mt 2981 2518 L
2981  216 mt 2981  260 L
2948 2708 mt 
(6) s
3725 2563 mt 3725 2518 L
3725  216 mt 3725  260 L
3692 2708 mt 
(8) s
4469 2563 mt 4469 2518 L
4469  216 mt 4469  260 L
4403 2708 mt 
(10) s
5213 2563 mt 5213 2518 L
5213  216 mt 5213  260 L
5147 2708 mt 
(12) s
 749 2319 mt  793 2319 L
5213 2319 mt 5168 2319 L
 418 2363 mt 
(-1.5y) s
 749 2017 mt  793 2017 L
5213 2017 mt 5168 2017 L
 418 2061 mt 
(-1.0y) s
 749 1716 mt  793 1716 L
5213 1716 mt 5168 1716 L
 418 1760 mt 
(-0.5y) s
 749 1414 mt  793 1414 L
5213 1414 mt 5168 1414 L
 454 1458 mt 
( 0.0y) s
 749 1112 mt  793 1112 L
5213 1112 mt 5168 1112 L
 454 1156 mt 
( 0.5y) s
 749  810 mt  793  810 L
5213  810 mt 5168  810 L
 454  854 mt 
( 1.0y) s
 749  508 mt  793  508 L
5213  508 mt 5168  508 L
 454  552 mt 
( 1.5y) s
 749 2563 mt 5213 2563 L
 749  215 mt 5213  215 L
 749 2563 mt  749  215 L
5213 2563 mt 5213  215 L
gs 749 216 4465 2348 rc
96 w
0.7 sg
4 0 3 0 4 1 4 0 3 1 4 0 4 1 4 0 
3 1 4 0 4 1 4 1 3 0 4 1 4 1 3 1 
4 1 4 0 4 1 3 1 4 1 4 1 3 1 4 1 
4 1 4 1 3 2 4 1 4 1 3 1 4 1 4 2 
4 1 3 1 4 2 4 1 4 2 3 1 4 2 4 1 
3 2 4 1 4 2 4 2 3 1 4 2 4 2 3 2 
4 1 4 2 4 2 3 2 4 2 4 2 3 2 4 2 
4 2 4 2 3 2 4 2 4 2 4 3 3 2 4 2 
4 2 3 3 4 2 4 3 4 2 3 2 4 3 4 2 
3 3 4 2 4 3 4 3 3 2 4 3 4 3 3 3 
4 2 4 3 4 3 3 3 4 3 4 3 4 3 3 3 
4 3 4 3 3 3 4 3 4 3 4 3 3 3 4 3 
4 3 3 3 4 3 4 3 4 3 3 3 4 3 4 3 
3 3 4 3 4 3 4 3 3 3 4 3 4 3 4 3 
3 3 4 3 4 3 3 3 4 3 4 3 4 3 3 3 
4 3 4 3 3 3 4 3 4 3 4 3 3 3 4 4 
4 3 3 3 4 3 4 3 4 3 3 3 4 3 4 3 
4 3 3 3 4 3 4 3 3 3 4 3 4 3 4 3 
3 3 4 3 4 3 3 3 4 3 4 3 4 3 3 3 
4 3 4 3 3 3 4 3 4 3 4 3 3 3 4 3 
4 3 4 3 3 3 4 3 4 3 3 3 4 3 4 3 
4 3 3 3 4 4 4 3 3 3 4 3 4 3 4 3 
3 3 4 3 4 3 3 3 4 3 4 3 4 3 3 3 
4 3 4 3 4 3 3 3 4 3 4 3 3 3 4 3 
4 3 4 3 3 3 4 3 4 3 3 3 4 3 4 3 
4 3 3 3 4 3 4 3 3 3 4 3 4 3 4 3 
3 3 4 3 4 3 4 3 3 3 4 3 4 3 3 3 
4 4 4 3 4 3 3 3 4 3 4 3 3 3 4 3 
4 3 4 3 3 3 4 3 4 3 3 3 4 3 4 3 
4 3 3 3 4 3 4 3 4 3 3 3 4 3 4 3 
3 3 4 4 4 3 4 3 3 3 4 3 4 3 3 3 
4 3 4 3 4 3 3 3 4 3 4 3 3 4 4 3 
4 3 4 3 3 3 4 3 4 3 4 3 3 4 4 3 
4 3 3 3 4 3 4 3 4 4 3 3 4 3 4 3 
3 3 4 4 4 3 4 3 3 3 4 4 4 3 3 3 
4 3 4 4 4 3 3 3 4 4 4 3 4 3 3 4 
4 3 4 3 3 4 4 3 4 4 4 3 3 3 4 4 
4 3 3 4 4 3 1143 615 300 MP stroke
4 4 4 3 3 4 4 3 4 4 3 3 4 4 4 3 
4 4 3 3 4 3 4 4 4 3 3 3 4 4 4 3 
3 3 4 3 4 3 4 3 3 3 4 4 4 3 3 3 
4 2 4 3 4 3 3 3 4 3 4 3 3 2 4 3 
4 3 4 2 3 3 4 3 4 2 4 3 3 2 4 3 
4 2 3 2 4 3 4 2 4 2 3 3 4 2 4 2 
3 2 4 2 4 2 4 2 3 2 4 2 4 2 3 2 
4 2 4 2 4 1 3 2 4 2 4 1 4 2 3 2 
4 1 4 2 3 1 4 2 4 1 4 1 3 2 4 1 
4 1 3 2 4 1 4 1 4 1 3 1 4 1 4 1 
3 1 4 1 4 1 4 1 3 1 4 0 4 1 4 1 
3 1 4 0 4 1 3 0 4 1 4 0 4 1 3 0 
4 1 4 0 3 0 4 0 4 1 4 0 3 0 4 0 
4 0 3 0 749 411 107 MP stroke
4 0 4 0 4 0 3 0 4 1 4 0 4 0 3 0 
4 0 4 0 3 0 4 1 4 0 4 0 3 0 4 0 
4 0 3 0 4 1 4 0 4 0 3 0 4 0 4 1 
3 0 4 0 4 0 4 0 3 0 4 1 4 0 4 0 
3 0 4 1 4 0 3 0 4 0 4 0 4 1 3 0 
4 0 4 0 3 1 4 0 4 0 4 0 3 1 4 0 
4 0 3 0 4 1 4 0 4 0 3 0 4 1 4 0 
4 0 3 1 4 0 4 0 3 0 4 1 4 0 4 0 
3 1 4 0 4 0 3 1 4 0 4 0 4 0 3 1 
4 0 4 0 3 1 4 0 4 0 4 1 3 0 4 0 
4 0 4 1 3 0 4 0 4 1 3 0 4 0 4 1 
4 0 3 0 4 0 4 1 3 0 4 0 4 1 4 0 
3 0 4 1 4 0 3 0 4 1 4 0 4 0 3 0 
4 1 4 0 4 0 3 1 4 0 4 0 3 1 4 0 
4 0 4 0 3 1 4 0 4 0 3 1 4 0 4 0 
4 1 3 0 4 0 4 0 3 1 4 0 4 0 4 1 
3 0 4 0 4 1 4 0 3 0 4 0 4 1 3 0 
4 0 4 1 4 0 3 0 4 1 4 0 3 0 4 1 
4 0 4 0 3 0 4 1 4 0 3 0 4 1 4 0 
4 0 3 1 4 0 4 0 4 0 3 1 4 0 4 0 
3 1 4 0 4 0 4 1 3 0 4 0 4 0 3 1 
4 0 4 0 4 1 3 0 4 0 4 1 3 0 4 0 
4 1 4 0 3 0 4 0 4 1 4 0 3 0 4 1 
4 0 3 0 4 1 4 0 4 0 3 0 4 1 4 0 
3 0 4 1 4 0 4 0 3 1 4 0 4 0 3 0 
4 1 4 0 4 0 3 1 4 0 4 0 4 1 3 0 
4 0 4 0 3 1 4 0 4 0 4 1 3 0 4 0 
4 1 3 0 4 0 4 1 4 0 3 0 4 0 4 1 
3 0 4 0 4 1 4 0 3 0 4 1 4 0 4 0 
3 0 4 1 4 0 3 0 4 1 4 0 4 0 3 1 
4 0 4 0 3 0 4 1 4 0 4 0 3 1 4 0 
4 0 3 1 4 0 4 0 4 0 3 1 4 0 4 0 
4 1 3 0 4 0 4 1 3 0 4 0 4 1 4 0 
3 0 4 0 4 1 3 0 4 0 4 1 4 0 3 0 
4 1 4 0 3 0 4 0 4 1 4 0 3 0 4 1 
4 0 4 0 3 1 4 0 4 0 3 0 4 1 4 0 
4 0 3 1 4 0 4 0 3 1 4 0 4 0 4 1 
3 0 4 0 4 0 3914 1508 300 MP stroke
3 1 4 0 4 0 4 1 3 0 4 0 4 1 4 0 
3 0 4 0 4 1 3 0 4 0 4 1 4 0 3 0 
4 1 4 0 3 0 4 0 4 1 4 0 3 0 4 1 
4 0 3 0 4 1 4 0 4 0 3 0 4 1 4 0 
4 0 3 1 4 0 4 0 3 1 4 0 4 0 4 0 
3 1 4 0 4 0 3 1 4 0 4 0 4 1 3 0 
4 0 4 1 3 0 4 0 4 0 4 1 3 0 4 0 
4 1 4 0 3 0 4 1 4 0 3 0 4 0 4 1 
4 0 3 0 4 1 4 0 3 0 4 1 4 0 4 0 
3 0 4 1 4 0 3 0 4 1 4 0 4 0 3 1 
4 0 4 0 4 0 3 1 4 0 4 0 3 1 4 0 
4 0 4 1 3 0 4 0 4 0 3 1 4 0 4 0 
4 1 3 0 4 0 4 1 3 0 4 0 4 0 4 1 
3 0 4 0 4 1 4 0 3 0 4 1 4 0 3 0 
4 1 4 0 4 0 3 0 4 1 4 0 3 0 4 1 
4 0 4 0 3 1 4 0 4 0 3 0 4 1 4 0 
4 0 3 1 4 0 4 0 4 1 3 0 4 0 4 0 
3 1 4 0 4 0 4 1 3 0 4 0 4 1 3 0 
4 0 4 0 4 1 3 0 4 0 4 1 3 0 4 0 
4 1 4 0 3 0 4 0 4 1 4 0 3 0 4 1 
4 0 3 0 4 1 4 0 4 0 3 0 4 1 4 0 
3 0 4 1 4 0 4 0 3 1 4 0 4 0 3 0 
4 1 4 0 4 0 3 1 4 0 4 0 4 0 3 1 
4 0 4 0 3 1 4 0 4 0 4 1 3 0 4 0 
4 0 3 1 4 0 4 0 4 1 3 0 4 0 4 1 
3 0 4 0 4 0 4 1 3 0 4 0 4 1 4 0 
3 0 4 1 4 0 3 0 4 0 4 1 4 0 3 0 
4 1 4 0 3 0 4 1 4 0 4 0 3 0 4 1 
4 0 3 0 4 1 4 0 4 0 3 0 4 1 4 0 
4 0 3 1 4 0 4 0 3 1 4 0 4 0 4 0 
3 1 4 0 4 0 3 1 4 0 4 0 4 1 3 0 
4 0 4 0 3 1 4 0 4 0 4 1 3 0 4 0 
4 0 4 1 3 0 4 0 4 1 3 0 4 0 4 1 
4 0 3 0 4 0 4 1 3 0 4 0 4 1 4 0 
3 0 4 0 4 1 3 0 4 0 4 0 4 1 3 0 
4 0 4 0 4 1 3 0 4 0 4 0 3 1 4 0 
4 0 4 0 3 1 4 0 4 0 3 0 4 0 4 1 
4 0 3 0 4 0 2802 1420 300 MP stroke
4 0 3 1 4 0 4 0 4 0 3 0 4 0 4 1 
4 0 3 0 4 0 4 0 3 0 4 1 4 0 4 0 
3 0 4 0 4 0 3 1 4 0 4 0 4 0 3 0 
4 0 4 0 3 0 4 1 4 0 4 0 3 0 4 0 
4 0 4 0 3 0 4 0 4 0 3 0 4 1 4 0 
4 0 3 0 4 0 4 0 3 0 4 0 4 0 4 0 
3 0 4 0 4 0 3 0 4 0 4 0 4 0 3 1 
4 0 4 0 4 0 3 0 4 0 4 0 3 0 4 0 
4 0 2560 1413 66 MP stroke
24 w
/c8 { 0.000000 0.000000 1.000000 sr} bdef
c8
4 0 4 0 4 0 3 0 4 0 4 0 4 0 3 0 
4 0 4 0 3 0 4 0 4 0 4 0 3 -1 4 0 
4 0 3 0 4 0 4 0 4 0 3 0 4 0 4 0 
3 0 4 0 4 -1 4 0 3 0 4 0 4 0 4 0 
3 0 4 0 4 0 3 0 4 0 4 0 4 0 3 0 
4 0 4 0 3 0 4 0 4 0 4 0 3 0 4 0 
4 0 3 0 4 0 4 -1 4 0 3 0 4 0 4 0 
4 0 3 0 4 0 4 -1 3 0 4 0 4 0 4 0 
3 0 4 -1 4 0 3 0 4 0 4 0 4 0 3 -1 
4 0 4 0 3 0 4 0 4 0 4 -1 3 0 4 0 
4 0 4 0 3 -1 4 0 4 0 3 0 4 -1 4 0 
4 0 3 0 4 0 4 -1 3 0 4 0 4 0 4 -1 
3 0 4 0 4 0 3 -1 4 0 4 0 4 -1 3 0 
4 0 4 0 4 -1 3 0 4 0 4 0 3 -1 4 0 
4 0 4 -1 3 0 4 0 4 -1 3 0 4 0 4 -1 
4 0 3 0 4 0 4 -1 3 0 4 0 4 -1 4 0 
3 0 4 -1 4 0 4 0 3 0 4 -1 4 0 3 0 
4 -1 4 0 4 0 3 -1 4 0 4 0 3 0 4 -1 
4 0 4 0 3 -1 4 0 4 0 3 -1 4 0 4 0 
4 0 3 -1 4 0 4 0 4 -1 3 0 4 0 4 -1 
3 0 4 0 4 -1 4 0 3 0 4 0 4 -1 3 0 
4 0 4 -1 4 0 3 0 4 -1 4 0 3 0 4 0 
4 -1 4 0 3 0 4 -1 4 0 4 0 3 -1 4 0 
4 0 3 0 4 -1 4 0 4 0 3 -1 4 0 4 0 
3 -1 4 0 4 0 4 0 3 -1 4 0 4 0 3 -1 
4 0 4 0 4 -1 3 0 4 0 4 -1 4 0 3 0 
4 0 4 -1 3 0 4 0 4 -1 4 0 3 0 4 -1 
4 0 3 0 4 0 4 -1 4 0 3 0 4 -1 4 0 
3 0 4 -1 4 0 4 0 3 0 4 -1 4 0 4 0 
3 -1 4 0 4 0 3 -1 4 0 4 0 4 0 3 -1 
4 0 4 0 3 -1 4 0 4 0 4 -1 3 0 4 0 
4 -1 3 0 4 0 4 0 4 -1 3 0 4 0 4 -1 
4 0 3 0 4 -1 4 0 3 0 4 0 4 -1 4 0 
3 0 4 -1 4 0 3 0 4 -1 4 0 4 0 3 0 
4 -1 4 0 3 0 4 -1 4 0 4 0 3 -1 4 0 
4 0 4 0 3 -1 4 0 4 0 3 -1 4 0 4 0 
4 -1 3 0 4 0 4 -1 3 0 4 0 4 0 4 -1 
3 0 4 0 4 -1 4100 1305 300 MP stroke
3 0 4 0 4 -1 4 0 3 0 4 0 4 -1 4 0 
3 0 4 -1 4 0 3 0 4 -1 4 0 4 0 3 0 
4 -1 4 0 3 0 4 -1 4 0 4 0 3 -1 4 0 
4 0 3 0 4 -1 4 0 4 0 3 -1 4 0 4 0 
4 -1 3 0 4 0 4 0 3 -1 4 0 4 0 4 -1 
3 0 4 0 4 -1 3 0 4 0 4 -1 4 0 3 0 
4 0 4 -1 3 0 4 0 4 -1 4 0 3 0 4 -1 
4 0 4 0 3 0 4 -1 4 0 3 0 4 -1 4 0 
4 0 3 -1 4 0 4 0 3 0 4 -1 4 0 4 0 
3 -1 4 0 4 0 3 -1 4 0 4 0 4 0 3 -1 
4 0 4 0 4 -1 3 0 4 0 4 -1 3 0 4 0 
4 0 4 -1 3 0 4 0 4 -1 3 0 4 0 4 -1 
4 0 3 0 4 -1 4 0 3 0 4 0 4 -1 4 0 
3 0 4 -1 4 0 4 0 3 -1 4 0 4 0 3 0 
4 -1 4 0 4 0 3 -1 4 0 4 0 3 -1 4 0 
4 0 4 0 3 -1 4 0 4 0 3 -1 4 0 4 0 
4 -1 3 0 4 0 4 0 4 -1 3 0 4 0 4 -1 
3 0 4 0 4 -1 4 0 3 0 4 0 4 -1 3 0 
4 0 4 -1 4 0 3 0 4 -1 4 0 3 0 4 0 
4 -1 4 0 3 0 4 -1 4 0 4 0 3 -1 4 0 
4 0 3 0 4 -1 4 0 4 0 3 -1 4 0 4 0 
3 -1 4 0 4 0 4 0 3 -1 4 0 4 0 3 -1 
4 0 4 0 4 -1 3 0 4 0 4 0 4 -1 3 0 
4 0 4 -1 3 0 4 0 4 -1 4 0 3 0 4 0 
4 -1 3 0 4 0 4 -1 4 0 3 0 4 -1 4 0 
3 0 4 0 4 -1 4 0 3 0 4 -1 4 0 4 0 
3 -1 4 0 4 0 3 0 4 -1 4 0 4 0 3 -1 
4 0 4 0 3 -1 4 0 4 0 4 0 3 -1 4 0 
4 0 3 -1 4 0 4 0 4 -1 3 0 4 0 4 0 
4 -1 3 0 4 0 4 -1 3 0 4 0 4 -1 4 0 
3 0 4 0 4 -1 3 0 4 0 4 -1 4 0 3 0 
4 -1 4 0 3 0 4 0 4 -1 4 0 3 0 4 -1 
4 0 4 0 3 -1 4 0 4 0 3 0 4 -1 4 0 
4 0 3 -1 4 0 4 0 3 -1 4 0 4 0 4 0 
3 -1 4 0 4 0 3 -1 4 0 4 0 4 -1 3 0 
4 0 4 0 4 -1 3 0 4 0 4 -1 3 0 4 0 
4 0 4 -1 3 0 4 0 4 -1 3 0 4 0 4 -1 
4 0 3 0 4 0 2988 1394 300 MP stroke
4 -1 3 0 4 0 4 -1 4 0 3 0 4 -1 4 0 
4 0 3 0 4 -1 4 0 3 0 4 -1 4 0 4 0 
3 -1 4 0 4 0 3 0 4 -1 4 0 4 0 3 0 
4 -1 4 0 3 0 4 -1 4 0 4 0 3 0 4 -1 
4 0 4 0 3 0 4 -1 4 0 3 0 4 0 4 0 
4 -1 3 0 4 0 4 0 3 -1 4 0 4 0 4 0 
3 0 4 -1 4 0 3 0 4 0 4 0 4 -1 3 0 
4 0 4 0 4 0 3 0 4 -1 4 0 3 0 4 0 
4 0 4 0 3 -1 4 0 4 0 3 0 4 0 4 0 
4 0 3 0 4 -1 4 0 3 0 4 0 4 0 4 0 
3 0 4 0 4 0 4 -1 3 0 4 0 4 0 3 0 
4 0 4 0 4 0 3 0 4 0 4 0 3 0 4 -1 
4 0 4 0 3 0 4 0 4 0 3 0 4 0 4 0 
4 0 3 1 4 0 4 0 4 0 3 0 4 0 4 0 
3 0 4 0 4 0 4 0 3 0 4 0 4 0 3 0 
4 0 4 0 4 0 3 0 4 0 4 0 3 0 4 0 
4 0 4 0 3 0 4 0 4 0 4 0 3 0 4 0 
4 0 3 0 4 0 4 0 4 0 3 0 4 0 4 0 
3 0 4 0 4 0 4 0 3 0 4 0 4 0 3 0 
4 0 4 0 4 0 3 0 4 0 4 0 4 0 3 0 
4 0 4 0 3 0 4 -1 4 0 4 0 3 0 4 0 
4 0 3 0 4 0 4 1 4 0 3 0 4 0 4 0 
3 0 4 0 4 0 4 0 3 1 4 0 4 0 4 0 
3 0 4 0 4 0 3 0 4 0 4 0 4 0 3 1 
4 0 4 0 3 0 4 0 4 0 4 0 3 0 4 1 
4 0 3 1 4 0 4 1 4 0 3 1 4 0 4 1 
4 1 3 0 4 1 4 1 3 1 4 1 4 0 4 1 
3 1 4 1 4 1 3 1 4 1 4 1 4 1 3 2 
4 1 4 1 3 1 4 1 4 2 4 1 3 1 4 2 
4 1 4 2 3 1 4 2 4 1 3 2 4 1 4 2 
4 2 3 1 4 2 4 2 3 2 4 1 4 2 4 2 
3 2 4 2 4 2 3 2 4 2 4 2 4 2 3 2 
4 2 4 2 4 3 3 2 4 2 4 2 3 3 4 2 
4 3 4 2 3 2 4 3 4 2 3 3 4 2 4 3 
4 3 3 2 4 3 4 3 3 3 4 2 4 3 4 3 
3 3 4 3 4 3 4 3 3 3 4 3 4 3 3 3 
4 3 4 3 4 3 3 3 4 3 4 3 3 3 4 3 
4 3 4 3 3 3 1876 1222 300 MP stroke
4 3 4 3 3 3 4 3 4 3 4 3 3 3 4 3 
4 3 4 3 3 3 4 3 4 3 3 3 4 3 4 3 
4 3 3 3 4 3 4 3 3 3 4 3 4 3 4 3 
3 3 4 4 4 3 3 3 4 3 4 3 4 3 3 3 
4 3 4 3 4 3 3 3 4 3 4 3 3 3 4 3 
4 3 4 3 3 3 4 3 4 3 3 3 4 3 4 3 
4 3 3 3 4 3 4 3 3 3 4 3 4 3 4 3 
3 3 4 3 4 3 4 3 3 3 4 3 4 3 3 3 
4 3 4 3 4 3 3 3 4 4 4 3 3 3 4 3 
4 3 4 3 3 3 4 3 4 3 3 3 4 3 4 3 
4 3 3 3 4 3 4 3 4 3 3 3 4 3 4 3 
3 3 4 3 4 3 4 3 3 3 4 3 4 3 3 3 
4 3 4 3 4 3 3 3 4 3 4 3 3 3 4 3 
4 3 4 3 3 3 4 3 4 3 4 3 3 3 4 3 
4 3 3 3 4 4 4 3 4 3 3 3 4 3 4 3 
3 3 4 3 4 3 4 3 3 3 4 3 4 3 3 3 
4 3 4 3 4 3 3 3 4 3 4 3 4 3 3 3 
4 3 4 3 3 3 4 4 4 3 4 3 3 3 4 3 
4 3 3 3 4 3 4 3 4 3 3 3 4 3 4 3 
3 4 4 3 4 3 4 3 3 3 4 3 4 3 4 3 
3 4 4 3 4 3 3 3 4 3 4 3 4 4 3 3 
4 3 4 3 3 3 4 4 4 3 4 3 3 3 4 4 
4 3 3 3 4 3 4 4 4 3 3 3 4 4 4 3 
4 3 3 4 4 3 4 3 3 4 4 3 4 4 4 3 
3 3 4 4 4 3 3 4 4 3 4 4 4 3 3 4 
4 3 4 4 3 3 4 4 4 3 4 4 3 3 4 3 
4 4 4 3 3 3 4 4 4 3 3 3 4 3 4 3 
4 3 3 3 4 4 4 3 3 3 4 2 4 3 4 3 
3 3 4 3 4 3 3 2 4 3 4 3 4 2 3 3 
4 3 4 2 4 3 3 2 4 3 4 2 3 2 4 3 
4 2 4 2 3 3 4 2 4 2 3 2 4 2 4 2 
4 2 3 2 4 2 4 2 3 2 4 2 4 2 4 1 
3 2 4 2 4 1 4 2 3 2 4 1 4 2 3 1 
4 2 4 1 4 1 3 2 4 1 4 1 3 2 4 1 
4 1 4 1 3 1 4 1 4 1 3 1 4 1 4 1 
4 1 3 1 4 0 4 1 4 1 3 1 4 0 4 1 
3 0 4 1 4 0 4 1 3 0 4 1 4 0 3 0 
4 0 4 1 4 0 763 411 300 MP stroke
3 0 4 0 4 0 3 0 749 411 5 MP stroke
6 w
/c9 { 0.000000 0.500000 0.000000 sr} bdef
c9
4 0 4 0 4 0 3 0 4 0 4 1 4 0 3 0 
4 0 4 0 3 0 4 0 4 0 4 0 3 0 4 0 
4 0 3 0 4 0 4 1 4 0 3 0 4 0 4 0 
3 0 4 0 4 0 4 0 3 0 4 0 4 0 4 0 
3 1 4 0 4 0 3 0 4 0 4 0 4 0 3 0 
4 0 4 0 3 0 4 0 4 0 4 0 3 0 4 0 
4 0 3 0 4 0 4 0 4 0 3 0 4 1 4 0 
4 0 3 0 4 0 4 0 3 0 4 1 4 0 4 0 
3 0 4 0 4 0 3 0 4 1 4 0 4 0 3 0 
4 0 4 1 3 0 4 0 4 0 4 0 3 0 4 1 
4 0 4 0 3 0 4 1 4 0 3 0 4 0 4 0 
4 1 3 0 4 0 4 0 3 1 4 0 4 0 4 0 
3 1 4 0 4 0 3 0 4 1 4 0 4 0 3 0 
4 1 4 0 4 0 3 1 4 0 4 0 3 0 4 1 
4 0 4 0 3 1 4 0 4 0 3 1 4 0 4 0 
4 0 3 1 4 0 4 0 3 1 4 0 4 0 4 1 
3 0 4 0 4 0 4 1 3 0 4 0 4 1 3 0 
4 0 4 1 4 0 3 0 4 0 4 1 3 0 4 0 
4 1 4 0 3 0 4 1 4 0 3 0 4 1 4 0 
4 0 3 0 4 1 4 0 4 0 3 1 4 0 4 0 
3 1 4 0 4 0 4 0 3 1 4 0 4 0 3 1 
4 0 4 0 4 1 3 0 4 0 4 0 3 1 4 0 
4 0 4 1 3 0 4 0 4 1 4 0 3 0 4 0 
4 1 3 0 4 0 4 1 4 0 3 0 4 1 4 0 
3 0 4 1 4 0 4 0 3 0 4 1 4 0 3 0 
4 1 4 0 4 0 3 1 4 0 4 0 4 0 3 1 
4 0 4 0 3 1 4 0 4 0 4 1 3 0 4 0 
4 0 3 1 4 0 4 0 4 1 3 0 4 0 4 1 
3 0 4 0 4 1 4 0 3 0 4 0 4 1 4 0 
3 0 4 1 4 0 3 0 4 1 4 0 4 0 3 0 
4 1 4 0 3 0 4 1 4 0 4 0 3 1 4 0 
4 0 3 0 4 1 4 0 4 0 3 1 4 0 4 0 
4 1 3 0 4 0 4 0 3 1 4 0 4 0 4 1 
3 0 4 0 4 1 3 0 4 0 4 1 4 0 3 0 
4 0 4 1 3 0 4 0 4 1 4 0 3 0 4 1 
4 0 4 0 3 0 4 1 4 0 3 0 4 1 4 0 
4 0 3 1 4 0 4 0 3 0 4 1 4 0 4 0 
3 1 4 0 4 0 4100 1523 300 MP stroke
3 1 4 0 4 0 4 0 3 1 4 0 4 0 4 1 
3 0 4 0 4 1 3 0 4 0 4 1 4 0 3 0 
4 0 4 1 3 0 4 0 4 1 4 0 3 0 4 1 
4 0 3 0 4 0 4 1 4 0 3 0 4 1 4 0 
4 0 3 1 4 0 4 0 3 0 4 1 4 0 4 0 
3 1 4 0 4 0 3 1 4 0 4 0 4 1 3 0 
4 0 4 0 3 1 4 0 4 0 4 1 3 0 4 0 
4 1 4 0 3 0 4 0 4 1 3 0 4 0 4 1 
4 0 3 0 4 1 4 0 3 0 4 0 4 1 4 0 
3 0 4 1 4 0 3 0 4 1 4 0 4 0 3 0 
4 1 4 0 4 0 3 1 4 0 4 0 3 1 4 0 
4 0 4 0 3 1 4 0 4 0 3 1 4 0 4 0 
4 1 3 0 4 0 4 1 3 0 4 0 4 0 4 1 
3 0 4 0 4 1 4 0 3 0 4 1 4 0 3 0 
4 0 4 1 4 0 3 0 4 1 4 0 3 0 4 1 
4 0 4 0 3 0 4 1 4 0 3 0 4 1 4 0 
4 0 3 1 4 0 4 0 4 0 3 1 4 0 4 0 
3 1 4 0 4 0 4 1 3 0 4 0 4 0 3 1 
4 0 4 0 4 1 3 0 4 0 4 1 3 0 4 0 
4 0 4 1 3 0 4 0 4 1 4 0 3 0 4 1 
4 0 3 0 4 1 4 0 4 0 3 0 4 1 4 0 
3 0 4 1 4 0 4 0 3 1 4 0 4 0 3 0 
4 1 4 0 4 0 3 1 4 0 4 0 4 1 3 0 
4 0 4 0 3 1 4 0 4 0 4 1 3 0 4 0 
4 1 3 0 4 0 4 0 4 1 3 0 4 0 4 1 
3 0 4 0 4 1 4 0 3 0 4 0 4 1 4 0 
3 0 4 1 4 0 3 0 4 1 4 0 4 0 3 0 
4 1 4 0 3 0 4 1 4 0 4 0 3 1 4 0 
4 0 3 0 4 1 4 0 4 0 3 1 4 0 4 0 
4 0 3 1 4 0 4 0 3 1 4 0 4 0 4 1 
3 0 4 0 4 0 3 1 4 0 4 0 4 1 3 0 
4 0 4 1 3 0 4 0 4 0 4 1 3 0 4 0 
4 1 4 0 3 0 4 1 4 0 3 0 4 0 4 1 
4 0 3 0 4 1 4 0 3 0 4 1 4 0 4 0 
3 0 4 1 4 0 3 0 4 1 4 0 4 0 3 0 
4 1 4 0 4 0 3 1 4 0 4 0 3 1 4 0 
4 0 4 0 3 1 4 0 4 0 3 1 4 0 4 0 
4 1 3 0 4 0 2988 1433 300 MP stroke
4 0 3 1 4 0 4 0 4 1 3 0 4 0 4 0 
4 1 3 0 4 0 4 1 3 0 4 0 4 1 4 0 
3 0 4 0 4 1 3 0 4 0 4 1 4 0 3 0 
4 0 4 1 3 0 4 0 4 0 4 1 3 0 4 0 
4 0 4 1 3 0 4 0 4 0 3 1 4 0 4 0 
4 0 3 1 4 0 4 0 3 0 4 0 4 1 4 0 
3 0 4 0 4 0 3 1 4 0 4 0 4 0 3 0 
4 0 4 1 4 0 3 0 4 0 4 0 3 0 4 1 
4 0 4 0 3 0 4 0 4 0 3 1 4 0 4 0 
4 0 3 0 4 0 4 0 3 0 4 1 4 0 4 0 
3 0 4 0 4 0 4 0 3 0 4 0 4 0 3 0 
4 1 4 0 4 0 3 0 4 0 4 0 3 0 4 0 
4 0 4 0 3 0 4 0 4 0 3 0 4 0 4 0 
4 0 3 1 4 0 4 0 4 0 3 0 4 0 4 0 
3 0 4 0 4 0 4 0 3 0 4 0 4 0 3 0 
4 0 4 0 4 0 3 0 4 0 4 0 3 0 4 0 
4 0 4 0 3 0 4 0 4 0 4 0 3 0 4 0 
4 0 3 0 4 0 4 0 4 0 3 0 4 0 4 0 
3 0 4 0 4 0 4 0 3 0 4 0 4 0 3 0 
4 0 4 0 4 0 3 0 4 0 4 0 4 0 3 0 
4 0 4 0 3 0 4 -1 4 0 4 0 3 0 4 0 
4 0 3 0 4 0 4 0 4 0 3 0 4 0 4 0 
3 -1 4 0 4 0 4 0 3 0 4 0 4 0 4 0 
3 0 4 0 4 0 3 -1 4 0 4 0 4 0 3 0 
4 0 4 0 3 0 4 0 4 0 4 0 3 -1 4 0 
4 0 3 -1 4 0 4 -1 4 -1 3 0 4 -1 4 0 
4 -1 3 -1 4 -1 4 0 3 -1 4 -1 4 -1 4 -1 
3 -1 4 -1 4 -1 3 -1 4 -1 4 -1 4 -1 3 -1 
4 -1 4 -1 3 -2 4 -1 4 -1 4 -2 3 -1 4 -1 
4 -2 4 -1 3 -2 4 -1 4 -2 3 -1 4 -2 4 -1 
4 -2 3 -2 4 -1 4 -2 3 -2 4 -2 4 -2 4 -2 
3 -1 4 -2 4 -2 3 -2 4 -2 4 -2 4 -2 3 -3 
4 -2 4 -2 4 -2 3 -2 4 -3 4 -2 3 -2 4 -3 
4 -2 4 -2 3 -3 4 -2 4 -3 3 -2 4 -3 4 -3 
4 -2 3 -3 4 -2 4 -3 3 -3 4 -3 4 -3 4 -2 
3 -3 4 -3 4 -3 4 -3 3 -3 4 -3 4 -3 3 -3 
4 -3 4 -3 4 -3 3 -3 4 -3 4 -3 3 -3 4 -3 
4 -3 4 -3 3 -3 1876 1605 300 MP stroke
4 -3 4 -3 3 -3 4 -3 4 -3 4 -3 3 -3 4 -4 
4 -3 4 -3 3 -3 4 -3 4 -3 3 -3 4 -3 4 -3 
4 -3 3 -3 4 -3 4 -3 3 -3 4 -3 4 -3 4 -3 
3 -3 4 -3 4 -3 3 -3 4 -3 4 -3 4 -3 3 -3 
4 -3 4 -3 4 -3 3 -3 4 -3 4 -3 3 -3 4 -3 
4 -3 4 -3 3 -3 4 -3 4 -3 3 -3 4 -3 4 -3 
4 -3 3 -4 4 -3 4 -3 3 -3 4 -3 4 -3 4 -3 
3 -3 4 -3 4 -3 4 -3 3 -3 4 -3 4 -3 3 -3 
4 -3 4 -3 4 -3 3 -3 4 -3 4 -3 3 -3 4 -3 
4 -3 4 -3 3 -3 4 -3 4 -3 3 -3 4 -3 4 -3 
4 -3 3 -3 4 -3 4 -3 4 -3 3 -3 4 -3 4 -3 
3 -3 4 -3 4 -3 4 -4 3 -3 4 -3 4 -3 3 -3 
4 -3 4 -3 4 -3 3 -3 4 -3 4 -3 3 -3 4 -3 
4 -3 4 -3 3 -3 4 -3 4 -3 4 -3 3 -3 4 -3 
4 -3 3 -3 4 -3 4 -3 4 -3 3 -3 4 -3 4 -3 
3 -3 4 -3 4 -3 4 -3 3 -3 4 -3 4 -3 3 -3 
4 -3 4 -3 4 -3 3 -3 4 -3 4 -3 4 -3 3 -3 
4 -3 4 -3 3 -3 4 -3 4 -4 4 -3 3 -3 4 -3 
4 -3 3 -3 4 -3 4 -3 4 -3 3 -3 4 -3 4 -3 
3 -3 4 -3 4 -3 4 -3 3 -3 4 -3 4 -3 4 -3 
3 -3 4 -3 4 -3 3 -3 4 -3 4 -3 4 -3 3 -3 
4 -3 4 -3 3 -3 4 -3 4 -3 4 -3 3 -3 4 -3 
4 -3 3 -3 4 -3 4 -3 4 -3 3 -3 4 -3 4 -3 
4 -3 3 -3 4 -3 4 -3 3 -3 4 -3 4 -3 4 -3 
3 -3 4 -3 4 -3 3 -3 4 -3 4 -3 4 -3 3 -3 
4 -3 4 -3 3 -3 4 -3 4 -3 4 -3 3 -3 4 -3 
4 -2 4 -3 3 -3 4 -3 4 -2 3 -3 4 -3 4 -2 
4 -3 3 -2 4 -3 4 -2 3 -3 4 -2 4 -3 4 -2 
3 -2 4 -3 4 -2 3 -2 4 -3 4 -2 4 -2 3 -2 
4 -2 4 -2 4 -2 3 -2 4 -2 4 -2 3 -2 4 -2 
4 -2 4 -2 3 -2 4 -1 4 -2 3 -2 4 -1 4 -2 
4 -2 3 -1 4 -2 4 -1 3 -2 4 -1 4 -2 4 -1 
3 -2 4 -1 4 -1 4 -2 3 -1 4 -1 4 -1 3 -2 
4 -1 4 -1 4 -1 3 -1 4 -1 4 -1 3 -1 4 -1 
4 -1 4 -1 3 -1 4 0 4 -1 3 -1 4 -1 4 0 
4 -1 3 -1 4 0 4 -1 4 0 3 -1 4 0 4 -1 
3 0 4 -1 4 0 4 0 3 -1 4 0 4 0 3 0 
4 0 4 -1 4 0 763 2367 300 MP stroke
3 0 4 0 4 0 3 0 749 2367 5 MP stroke
DD
/c10 { 1.000000 0.000000 0.000000 sr} bdef
c10
4 0 4 0 4 0 3 0 4 0 4 0 4 0 3 0 
4 0 4 0 3 0 4 0 4 0 4 0 3 0 4 0 
4 0 3 0 4 0 4 0 4 0 3 0 4 0 4 0 
3 0 4 0 4 0 4 0 3 0 4 0 4 0 4 0 
3 0 4 0 4 0 3 0 4 0 4 0 4 0 3 0 
4 0 4 0 3 0 4 0 4 0 4 0 3 1 4 0 
4 0 3 0 4 0 4 0 4 0 3 0 4 0 4 0 
4 0 3 0 4 0 4 0 3 0 4 0 4 0 4 0 
3 0 4 0 4 0 3 0 4 0 4 0 4 0 3 0 
4 0 4 0 3 0 4 0 4 0 4 0 3 0 4 0 
4 0 4 0 3 0 4 0 4 0 3 0 4 0 4 0 
4 0 3 0 4 0 4 0 3 0 4 0 4 0 4 0 
3 0 4 0 4 0 3 0 4 0 4 0 4 0 3 0 
4 0 4 0 4 0 3 0 4 0 4 0 3 0 4 0 
4 0 4 0 3 0 4 0 4 0 3 0 4 0 4 0 
4 0 3 0 4 0 4 0 3 0 4 0 4 0 4 0 
3 0 4 0 4 0 4 0 3 0 4 0 4 0 3 0 
4 0 4 0 4 0 3 0 4 0 4 0 3 0 4 0 
4 0 4 0 3 0 4 0 4 0 3 0 4 0 4 0 
4 0 3 0 4 0 4 0 4 0 3 0 4 0 4 0 
3 0 4 0 4 0 4 0 3 0 4 0 4 0 3 0 
4 0 4 0 4 0 3 0 4 0 4 0 3 0 4 0 
4 0 4 0 3 0 4 0 4 0 4 0 3 0 4 0 
4 0 3 0 4 0 4 0 4 0 3 0 4 0 4 0 
3 0 4 0 4 0 4 0 3 0 4 0 4 0 3 0 
4 0 4 0 4 0 3 0 4 0 4 0 4 0 3 0 
4 0 4 0 3 0 4 0 4 0 4 0 3 0 4 0 
4 0 3 0 4 0 4 0 4 0 3 0 4 0 4 0 
3 0 4 0 4 0 4 0 3 0 4 0 4 0 4 0 
3 0 4 0 4 0 3 0 4 0 4 0 4 0 3 0 
4 0 4 0 3 0 4 0 4 0 4 0 3 0 4 0 
4 0 3 0 4 0 4 0 4 0 3 0 4 0 4 0 
4 0 3 0 4 0 4 0 3 0 4 0 4 0 4 0 
3 0 4 0 4 0 3 0 4 0 4 0 4 0 3 0 
4 0 4 0 3 0 4 0 4 0 4 0 3 0 4 0 
4 0 4 0 3 0 4 0 4 0 3 0 4 0 4 0 
4 0 3 0 4 0 4 0 3 0 4 0 4 0 4 0 
3 0 4 0 4 0 4100 1413 300 MP stroke
3 -1 4 0 4 0 4 0 3 0 4 0 4 0 4 0 
3 0 4 0 4 0 3 0 4 0 4 0 4 0 3 0 
4 0 4 0 3 0 4 0 4 0 4 0 3 0 4 0 
4 0 3 0 4 0 4 0 4 0 3 0 4 0 4 0 
4 0 3 0 4 0 4 0 3 0 4 0 4 0 4 0 
3 0 4 0 4 0 3 0 4 0 4 0 4 0 3 0 
4 0 4 0 3 0 4 0 4 0 4 0 3 0 4 0 
4 0 4 0 3 0 4 0 4 0 3 0 4 0 4 0 
4 0 3 0 4 0 4 0 3 0 4 0 4 0 4 0 
3 0 4 0 4 0 3 0 4 0 4 0 4 0 3 0 
4 0 4 0 4 0 3 0 4 0 4 0 3 0 4 0 
4 0 4 0 3 0 4 0 4 0 3 0 4 0 4 0 
4 0 3 0 4 0 4 0 3 0 4 0 4 0 4 0 
3 0 4 0 4 0 4 0 3 0 4 0 4 0 3 0 
4 0 4 0 4 0 3 0 4 0 4 0 3 0 4 0 
4 0 4 0 3 0 4 0 4 0 3 0 4 0 4 0 
4 0 3 0 4 0 4 0 4 0 3 0 4 0 4 0 
3 0 4 0 4 0 4 0 3 0 4 0 4 0 3 0 
4 0 4 0 4 0 3 0 4 0 4 0 3 0 4 0 
4 0 4 0 3 0 4 0 4 0 4 0 3 0 4 0 
4 0 3 0 4 0 4 0 4 0 3 0 4 0 4 0 
3 0 4 0 4 0 4 0 3 0 4 0 4 0 3 0 
4 0 4 0 4 0 3 0 4 0 4 0 4 0 3 0 
4 0 4 0 3 0 4 0 4 0 4 0 3 0 4 0 
4 0 3 0 4 0 4 0 4 0 3 0 4 0 4 0 
3 0 4 0 4 0 4 0 3 0 4 0 4 0 4 0 
3 0 4 0 4 0 3 0 4 0 4 0 4 0 3 0 
4 0 4 0 3 0 4 0 4 0 4 0 3 0 4 0 
4 0 3 0 4 0 4 0 4 0 3 0 4 0 4 0 
4 0 3 0 4 0 4 0 3 0 4 0 4 0 4 0 
3 0 4 0 4 0 3 0 4 0 4 0 4 0 3 0 
4 0 4 0 3 0 4 0 4 0 4 0 3 0 4 0 
4 0 4 0 3 0 4 0 4 0 3 0 4 0 4 0 
4 0 3 0 4 0 4 0 3 0 4 0 4 0 4 0 
3 0 4 0 4 0 3 0 4 0 4 0 4 0 3 0 
4 0 4 0 4 0 3 0 4 0 4 0 3 0 4 0 
4 0 4 0 3 0 4 0 4 0 3 0 4 0 4 0 
4 0 3 0 4 0 2988 1414 300 MP stroke
4 0 3 0 4 0 4 0 4 0 3 0 4 0 4 0 
4 0 3 0 4 0 4 0 3 0 4 0 4 0 4 0 
3 0 4 0 4 0 3 0 4 0 4 0 4 0 3 0 
4 0 4 0 3 0 4 0 4 0 4 0 3 0 4 0 
4 0 4 0 3 0 4 0 4 0 3 0 4 0 4 0 
4 0 3 0 4 0 4 0 3 0 4 0 4 0 4 0 
3 0 4 0 4 0 3 0 4 0 4 0 4 0 3 0 
4 0 4 0 4 0 3 0 4 0 4 0 3 0 4 0 
4 0 4 0 3 0 4 0 4 0 3 0 4 0 4 0 
4 0 3 0 4 0 4 0 3 0 4 0 4 0 4 0 
3 0 4 0 4 0 4 0 3 0 4 0 4 0 3 0 
4 0 4 0 4 0 3 0 4 0 4 0 3 0 4 0 
4 0 4 0 3 0 4 0 4 0 3 0 4 0 4 0 
4 0 3 0 4 0 4 0 4 0 3 0 4 0 4 0 
3 0 4 0 4 0 4 0 3 0 4 0 4 0 3 0 
4 0 4 0 4 0 3 0 4 0 4 0 3 0 4 0 
4 0 4 0 3 0 4 0 4 0 4 0 3 0 4 0 
4 0 3 0 4 0 4 0 4 0 3 0 4 0 4 0 
3 0 4 0 4 0 4 0 3 0 4 0 4 0 3 0 
4 0 4 0 4 0 3 0 4 0 4 0 4 0 3 0 
4 0 4 0 3 0 4 0 4 0 4 0 3 0 4 0 
4 0 3 0 4 0 4 0 4 0 3 0 4 0 4 0 
3 0 4 0 4 0 4 0 3 1 4 0 4 0 4 0 
3 0 4 0 4 0 3 0 4 0 4 0 4 0 3 0 
4 0 4 0 3 0 4 0 4 0 4 0 3 0 4 0 
4 0 3 0 4 0 4 0 4 0 3 0 4 0 4 0 
4 0 3 0 4 0 4 0 3 0 4 0 4 0 4 0 
3 0 4 0 4 0 3 0 4 0 4 0 4 0 3 0 
4 0 4 0 3 0 4 0 4 0 4 0 3 0 4 0 
4 0 4 0 3 0 4 0 4 0 3 0 4 0 4 0 
4 0 3 0 4 0 4 0 3 0 4 0 4 0 4 0 
3 0 4 0 4 0 3 0 4 0 4 0 4 0 3 0 
4 0 4 0 4 0 3 0 4 0 4 0 3 0 4 0 
4 0 4 0 3 0 4 0 4 0 3 0 4 0 4 0 
4 0 3 0 4 0 4 0 3 0 4 0 4 0 4 0 
3 0 4 0 4 0 4 0 3 0 4 0 4 0 3 0 
4 0 4 0 4 0 3 0 4 0 4 0 3 0 4 0 
4 0 4 0 3 0 1876 1413 300 MP stroke
4 0 4 0 3 0 4 0 4 0 4 0 3 0 4 0 
4 0 4 0 3 0 4 0 4 0 3 0 4 0 4 0 
4 0 3 0 4 0 4 0 3 0 4 0 4 0 4 0 
3 0 4 0 4 0 3 0 4 0 4 0 4 0 3 0 
4 0 4 0 4 0 3 0 4 0 4 0 3 0 4 0 
4 0 4 0 3 0 4 0 4 0 3 -1 4 0 4 0 
4 0 3 0 4 0 4 0 3 0 4 0 4 0 4 0 
3 0 4 0 4 0 4 0 3 0 4 0 4 0 3 0 
4 0 4 0 4 0 3 0 4 0 4 0 3 0 4 0 
4 0 4 0 3 0 4 0 4 0 3 0 4 0 4 0 
4 0 3 0 4 0 4 0 4 0 3 0 4 0 4 0 
3 0 4 0 4 0 4 0 3 0 4 0 4 0 3 0 
4 0 4 0 4 0 3 0 4 0 4 0 3 0 4 0 
4 0 4 0 3 0 4 0 4 0 4 0 3 0 4 0 
4 0 3 0 4 0 4 0 4 0 3 0 4 0 4 0 
3 0 4 0 4 0 4 0 3 0 4 0 4 0 3 0 
4 0 4 0 4 0 3 0 4 0 4 0 4 0 3 0 
4 0 4 0 3 0 4 0 4 0 4 0 3 0 4 0 
4 0 3 0 4 0 4 0 4 0 3 0 4 0 4 0 
3 0 4 0 4 0 4 0 3 0 4 0 4 0 4 0 
3 0 4 0 4 0 3 0 4 0 4 0 4 0 3 0 
4 0 4 0 3 0 4 0 4 0 4 0 3 0 4 0 
4 0 3 0 4 0 4 0 4 0 3 0 4 0 4 0 
4 0 3 0 4 0 4 0 3 0 4 0 4 0 4 0 
3 0 4 0 4 0 3 0 4 0 4 0 4 0 3 0 
4 0 4 0 3 0 4 0 4 0 4 0 3 0 4 0 
4 0 4 0 3 0 4 0 4 0 3 0 4 0 4 0 
4 0 3 0 4 0 4 0 3 0 4 0 4 0 4 0 
3 0 4 0 4 0 3 0 4 0 4 0 4 0 3 0 
4 0 4 0 4 1 3 0 4 0 4 0 3 1 4 0 
4 0 4 1 3 0 4 0 4 1 3 0 4 1 4 1 
4 0 3 1 4 0 4 1 3 1 4 1 4 0 4 1 
3 1 4 1 4 1 4 1 3 1 4 1 4 1 3 1 
4 1 4 1 4 1 3 1 4 1 4 1 3 1 4 1 
4 1 4 1 3 1 4 0 4 1 3 1 4 1 4 0 
4 1 3 1 4 0 4 1 4 0 3 1 4 0 4 1 
3 0 4 1 4 0 4 0 3 1 4 0 4 0 3 0 
4 1 4 0 4 0 763 1373 300 MP stroke
3 0 4 0 4 0 3 0 749 1373 5 MP stroke
/c11 { 0.000000 0.750000 0.750000 sr} bdef
c11
4 0 4 0 4 0 3 0 4 0 4 0 4 0 3 0 
4 0 4 0 3 0 4 1 4 0 4 0 3 0 4 0 
4 0 3 0 4 0 4 0 4 1 3 0 4 0 4 0 
3 0 4 0 4 0 4 0 3 1 4 0 4 0 4 0 
3 0 4 0 4 0 3 0 4 0 4 0 4 0 3 1 
4 0 4 0 3 0 4 0 4 0 4 0 3 0 4 0 
4 0 3 0 4 0 4 0 4 0 3 0 4 0 4 0 
4 0 3 0 4 0 4 0 3 0 4 0 4 0 4 0 
3 0 4 0 4 0 3 0 4 0 4 0 4 0 3 0 
4 0 4 0 3 0 4 0 4 0 4 0 3 0 4 0 
4 0 4 0 3 0 4 0 4 0 3 0 4 0 4 0 
4 0 3 0 4 0 4 0 3 0 4 0 4 0 4 0 
3 0 4 0 4 0 3 0 4 0 4 0 4 0 3 0 
4 0 4 0 4 0 3 0 4 0 4 0 3 0 4 0 
4 0 4 0 3 0 4 0 4 0 3 0 4 0 4 0 
4 0 3 0 4 0 4 0 3 0 4 0 4 0 4 0 
3 0 4 0 4 0 4 0 3 0 4 0 4 0 3 0 
4 0 4 0 4 0 3 0 4 0 4 0 3 0 4 0 
4 0 4 0 3 0 4 0 4 0 3 0 4 0 4 0 
4 0 3 0 4 0 4 0 4 0 3 0 4 0 4 0 
3 0 4 0 4 0 4 0 3 0 4 0 4 0 3 0 
4 0 4 0 4 0 3 0 4 0 4 0 3 0 4 0 
4 0 4 0 3 0 4 0 4 0 4 0 3 0 4 0 
4 0 3 0 4 0 4 0 4 0 3 0 4 0 4 0 
3 0 4 0 4 0 4 0 3 0 4 0 4 0 3 0 
4 0 4 0 4 0 3 0 4 0 4 0 4 0 3 0 
4 0 4 0 3 0 4 0 4 0 4 0 3 0 4 0 
4 0 3 0 4 0 4 0 4 0 3 0 4 0 4 0 
3 0 4 0 4 0 4 0 3 0 4 0 4 0 4 0 
3 0 4 0 4 0 3 0 4 0 4 0 4 0 3 0 
4 0 4 0 3 0 4 0 4 0 4 0 3 0 4 0 
4 0 3 0 4 0 4 0 4 0 3 0 4 0 4 0 
4 0 3 0 4 0 4 0 3 0 4 0 4 0 4 0 
3 0 4 0 4 0 3 0 4 0 4 0 4 0 3 0 
4 0 4 0 3 0 4 0 4 0 4 0 3 0 4 0 
4 0 4 0 3 0 4 0 4 0 3 0 4 0 4 0 
4 0 3 0 4 0 4 0 3 0 4 0 4 0 4 0 
3 0 4 0 4 0 4100 1409 300 MP stroke
3 0 4 0 4 0 4 0 3 0 4 0 4 0 4 0 
3 0 4 0 4 0 3 0 4 0 4 0 4 0 3 0 
4 0 4 0 3 0 4 0 4 0 4 0 3 0 4 0 
4 0 3 0 4 0 4 0 4 0 3 0 4 0 4 0 
4 0 3 0 4 0 4 0 3 0 4 0 4 0 4 0 
3 0 4 0 4 0 3 0 4 0 4 0 4 0 3 0 
4 0 4 0 3 0 4 0 4 0 4 0 3 0 4 0 
4 0 4 0 3 0 4 0 4 0 3 0 4 0 4 0 
4 0 3 0 4 0 4 0 3 0 4 0 4 0 4 0 
3 0 4 0 4 0 3 0 4 0 4 0 4 0 3 0 
4 0 4 0 4 0 3 0 4 0 4 0 3 0 4 0 
4 0 4 0 3 0 4 0 4 0 3 0 4 0 4 0 
4 0 3 0 4 0 4 0 3 0 4 0 4 0 4 0 
3 0 4 0 4 0 4 0 3 0 4 0 4 0 3 0 
4 0 4 0 4 0 3 0 4 0 4 0 3 0 4 0 
4 0 4 0 3 0 4 0 4 0 3 0 4 0 4 0 
4 0 3 0 4 0 4 0 4 0 3 0 4 0 4 0 
3 0 4 0 4 0 4 0 3 0 4 0 4 0 3 0 
4 0 4 0 4 0 3 0 4 0 4 0 3 0 4 0 
4 0 4 0 3 0 4 0 4 0 4 0 3 0 4 0 
4 0 3 0 4 0 4 0 4 0 3 0 4 0 4 0 
3 0 4 0 4 0 4 0 3 0 4 0 4 0 3 0 
4 0 4 0 4 0 3 0 4 0 4 0 4 0 3 0 
4 0 4 0 3 0 4 0 4 0 4 -1 3 0 4 0 
4 0 3 0 4 0 4 0 4 0 3 0 4 0 4 0 
3 0 4 0 4 0 4 0 3 0 4 0 4 0 4 0 
3 0 4 0 4 0 3 0 4 0 4 0 4 0 3 0 
4 0 4 0 3 0 4 0 4 0 4 0 3 0 4 0 
4 0 3 0 4 0 4 0 4 0 3 0 4 0 4 0 
4 0 3 0 4 0 4 0 3 0 4 0 4 0 4 0 
3 0 4 0 4 0 3 0 4 0 4 0 4 -1 3 0 
4 0 4 0 3 0 4 0 4 0 4 0 3 0 4 0 
4 0 4 0 3 0 4 0 4 0 3 0 4 0 4 0 
4 0 3 0 4 0 4 0 3 0 4 0 4 0 4 0 
3 0 4 0 4 0 3 0 4 0 4 0 4 0 3 0 
4 0 4 0 4 0 3 0 4 0 4 0 3 0 4 -1 
4 0 4 0 3 0 4 0 4 0 3 0 4 0 4 0 
4 0 3 0 4 0 2988 1412 300 MP stroke
4 0 3 0 4 0 4 0 4 0 3 0 4 0 4 0 
4 0 3 0 4 0 4 0 3 0 4 0 4 0 4 0 
3 0 4 0 4 0 3 0 4 0 4 0 4 0 3 0 
4 -1 4 0 3 0 4 0 4 0 4 0 3 0 4 0 
4 0 4 0 3 0 4 0 4 0 3 0 4 0 4 0 
4 0 3 0 4 0 4 0 3 0 4 0 4 0 4 0 
3 0 4 0 4 0 3 0 4 0 4 0 4 0 3 0 
4 0 4 0 4 0 3 0 4 0 4 0 3 0 4 0 
4 0 4 0 3 0 4 0 4 0 3 0 4 0 4 0 
4 0 3 -1 4 0 4 0 3 0 4 0 4 0 4 0 
3 0 4 0 4 0 4 0 3 0 4 0 4 0 3 0 
4 0 4 0 4 0 3 0 4 0 4 0 3 0 4 0 
4 0 4 0 3 0 4 0 4 0 3 0 4 0 4 0 
4 0 3 0 4 0 4 0 4 0 3 0 4 0 4 0 
3 0 4 0 4 0 4 0 3 0 4 0 4 0 3 0 
4 0 4 0 4 0 3 0 4 0 4 0 3 0 4 0 
4 0 4 0 3 0 4 0 4 0 4 0 3 0 4 0 
4 0 3 0 4 0 4 0 4 0 3 0 4 0 4 0 
3 0 4 0 4 0 4 0 3 0 4 0 4 0 3 0 
4 0 4 0 4 0 3 0 4 0 4 0 4 0 3 0 
4 0 4 0 3 0 4 0 4 0 4 0 3 0 4 0 
4 0 3 0 4 0 4 0 4 0 3 0 4 0 4 0 
3 0 4 0 4 0 4 0 3 0 4 0 4 0 4 0 
3 0 4 0 4 0 3 0 4 1 4 0 4 0 3 0 
4 0 4 0 3 0 4 0 4 0 4 0 3 0 4 0 
4 0 3 0 4 0 4 0 4 0 3 0 4 0 4 0 
4 0 3 0 4 0 4 0 3 0 4 0 4 0 4 0 
3 0 4 0 4 0 3 0 4 1 4 0 4 0 3 0 
4 0 4 0 3 0 4 0 4 0 4 0 3 0 4 0 
4 0 4 0 3 0 4 0 4 0 3 0 4 0 4 0 
4 0 3 0 4 0 4 0 3 0 4 0 4 0 4 0 
3 0 4 0 4 0 3 0 4 0 4 1 4 0 3 0 
4 0 4 0 4 0 3 0 4 0 4 0 3 0 4 0 
4 0 4 0 3 0 4 0 4 0 3 0 4 0 4 0 
4 0 3 0 4 0 4 0 3 0 4 0 4 0 4 0 
3 0 4 0 4 0 4 -1 3 0 4 0 4 0 3 0 
4 0 4 0 4 0 3 0 4 0 4 0 3 0 4 0 
4 0 4 0 3 0 1876 1412 300 MP stroke
4 0 4 0 3 0 4 0 4 0 4 0 3 0 4 0 
4 0 4 0 3 0 4 0 4 0 3 0 4 0 4 0 
4 0 3 0 4 0 4 0 3 0 4 0 4 0 4 0 
3 0 4 0 4 0 3 0 4 0 4 0 4 0 3 0 
4 0 4 0 4 0 3 0 4 0 4 0 3 0 4 0 
4 0 4 0 3 0 4 0 4 0 3 0 4 0 4 0 
4 0 3 0 4 0 4 0 3 0 4 0 4 0 4 0 
3 0 4 0 4 0 4 0 3 0 4 0 4 0 3 0 
4 0 4 0 4 0 3 0 4 0 4 0 3 0 4 0 
4 0 4 0 3 0 4 0 4 0 3 0 4 0 4 0 
4 0 3 0 4 0 4 0 4 0 3 0 4 0 4 0 
3 0 4 0 4 0 4 0 3 0 4 0 4 0 3 0 
4 0 4 0 4 0 3 0 4 0 4 0 3 0 4 0 
4 0 4 0 3 0 4 0 4 1 4 0 3 0 4 1 
4 0 3 0 4 1 4 0 4 1 3 0 4 1 4 0 
3 1 4 1 4 0 4 1 3 1 4 0 4 1 3 1 
4 1 4 1 4 1 3 0 4 1 4 1 4 1 3 1 
4 2 4 1 3 1 4 1 4 1 4 1 3 2 4 1 
4 1 3 2 4 1 4 1 4 2 3 1 4 2 4 1 
3 2 4 1 4 2 4 2 3 1 4 2 4 2 4 2 
3 1 4 2 4 2 3 2 4 2 4 2 4 2 3 2 
4 2 4 2 3 2 4 2 4 2 4 3 3 2 4 2 
4 2 3 3 4 2 4 2 4 3 3 2 4 3 4 2 
4 3 3 2 4 3 4 3 3 2 4 3 4 3 4 2 
3 3 4 3 4 3 3 3 4 3 4 2 4 3 3 3 
4 3 4 3 3 3 4 3 4 3 4 3 3 3 4 3 
4 3 4 3 3 2 4 3 4 3 3 3 4 2 4 3 
4 2 3 3 4 3 4 2 3 3 4 2 4 2 4 3 
3 2 4 2 4 3 3 2 4 2 4 2 4 3 3 2 
4 2 4 2 4 2 3 2 4 2 4 2 3 2 4 2 
4 2 4 1 3 2 4 2 4 2 3 1 4 2 4 2 
4 1 3 2 4 2 4 1 3 2 4 1 4 2 4 1 
3 1 4 2 4 1 4 1 3 2 4 1 4 1 3 1 
4 1 4 1 4 2 3 1 4 1 4 1 3 1 4 1 
4 0 4 1 3 1 4 1 4 1 3 1 4 0 4 1 
4 1 3 0 4 1 4 0 4 1 3 0 4 1 4 0 
3 1 4 0 4 1 4 0 3 0 4 0 4 1 3 0 
4 0 4 0 4 0 763 1106 300 MP stroke
3 0 4 1 4 0 3 -1 749 1106 5 MP stroke
gr

c11
DD
0 sg
2767 2851 mt 
(Time [s]) s
 336 2094 mt  -90 rotate
(Distance and positions [m]) s
90 rotate
 732 2606 mt 
( ) s
5197  258 mt 
( ) s
gs 749 216 4465 2348 rc
0 -2347 2255 2563 2 MP stroke
gr

1429 2252 mt 
(S1) s
gs 749 216 4465 2348 rc
0 -2347 2556 2563 2 MP stroke
gr

2333 2252 mt 
(S2) s
gs 749 216 4465 2348 rc
0 -2347 5027 2563 2 MP stroke
gr

3718 2252 mt 
(S3) s
SO
1 sg
0 772 1409 0 0 -772 3745 1048 4 MP
PP
-1409 0 0 772 1409 0 0 -772 3745 1048 5 MP stroke
4 w
DO
SO
6 w
0 sg
3745 1048 mt 5154 1048 L
3745  276 mt 5154  276 L
3745 1048 mt 3745  276 L
5154 1048 mt 5154  276 L
3745 1048 mt 5154 1048 L
3745 1048 mt 3745  276 L
3745 1048 mt 5154 1048 L
3745  276 mt 5154  276 L
3745 1048 mt 3745  276 L
5154 1048 mt 5154  276 L
4202  412 mt 
(exp_distance_tot) s
gs 3745 276 1410 773 rc
24 w
c8
351 0 3815 369 2 MP stroke
gr

24 w
c8
0 sg
4202  558 mt 
(exp_distance_x) s
gs 3745 276 1410 773 rc
6 w
c9
351 0 3815 515 2 MP stroke
gr

6 w
c9
0 sg
4202  704 mt 
(exp_distance_y) s
gs 3745 276 1410 773 rc
DD
c10
351 0 3815 661 2 MP stroke
SO
gr

c10
0 sg
4202  851 mt 
(exp_distance_z) s
gs 3745 276 1410 773 rc
DD
c11
351 0 3815 808 2 MP stroke
SO
gr

c11
0 sg
4202  997 mt 
(mon) s
gs 3745 276 1410 773 rc
96 w
0.7 sg
351 0 3815 954 2 MP stroke
6 w
gr

0.7 sg

end %%Color Dict

eplot
%%EndObject

epage
end

showpage

%%Trailer
%%BoundingBox:    81   276   509   509
%%Pages: 001
%%EOF
