%!PS-Adobe-3.0 
%%Creator: MATLAB, The MathWorks, Inc. Version 8.1.0.604 (R2013a). Operating System: Linux 3.19.0-30-generic #34~14.04.1-Ubuntu SMP Fri Oct 2 22:09:39 UTC 2015 x86_64.
%%Title: ./gripper.eps
%%CreationDate: 10/21/2015  11:58:30
%%DocumentNeededFonts: Helvetica
%%DocumentProcessColors: Cyan Magenta Yellow Black
%%LanguageLevel: 2
%%Pages: (atend)
%%BoundingBox: (atend)
%%EndComments

%%BeginProlog
% MathWorks dictionary
/MathWorks 160 dict begin
% definition operators
/bdef {bind def} bind def
/ldef {load def} bind def
/xdef {exch def} bdef
/xstore {exch store} bdef
% operator abbreviations
/c  /clip ldef
/cc /concat ldef
/cp /closepath ldef
/gr /grestore ldef
/gs /gsave ldef
/mt /moveto ldef
/np /newpath ldef
/cm /currentmatrix ldef
/sm /setmatrix ldef
/rm /rmoveto ldef
/rl /rlineto ldef
/s {show newpath} bdef
/sc {setcmykcolor} bdef
/sr /setrgbcolor ldef
/sg /setgray ldef
/w /setlinewidth ldef
/j /setlinejoin ldef
/cap /setlinecap ldef
/rc {rectclip} bdef
/rf {rectfill} bdef
% page state control
/pgsv () def
/bpage {/pgsv save def} bdef
/epage {pgsv restore} bdef
/bplot /gsave ldef
/eplot {stroke grestore} bdef
% orientation switch
/portraitMode 0 def /landscapeMode 1 def /rotateMode 2 def
% coordinate system mappings
/dpi2point 0 def
% font control
/FontSize 0 def
/FMS {/FontSize xstore findfont [FontSize 0 0 FontSize neg 0 0]
  makefont setfont} bdef
/reencode {exch dup where {pop load} {pop StandardEncoding} ifelse
  exch dup 3 1 roll findfont dup length dict begin
  { 1 index /FID ne {def}{pop pop} ifelse } forall
  /Encoding exch def currentdict end definefont pop} bdef
/isroman {findfont /CharStrings get /Agrave known} bdef
/FMSR {3 1 roll 1 index dup isroman {reencode} {pop pop} ifelse
  exch FMS} bdef
/csm {1 dpi2point div -1 dpi2point div scale neg translate
 dup landscapeMode eq {pop -90 rotate}
  {rotateMode eq {90 rotate} if} ifelse} bdef
% line types: solid, dotted, dashed, dotdash
/SO { [] 0 setdash } bdef
/DO { [.5 dpi2point mul 4 dpi2point mul] 0 setdash } bdef
/DA { [6 dpi2point mul] 0 setdash } bdef
/DD { [.5 dpi2point mul 4 dpi2point mul 6 dpi2point mul 4
  dpi2point mul] 0 setdash } bdef
% macros for lines and objects
/L {lineto stroke} bdef
/MP {3 1 roll moveto 1 sub {rlineto} repeat} bdef
/AP {{rlineto} repeat} bdef
/PDlw -1 def
/W {/PDlw currentlinewidth def setlinewidth} def
/PP {closepath eofill} bdef
/DP {closepath stroke} bdef
/MR {4 -2 roll moveto dup  0 exch rlineto exch 0 rlineto
  neg 0 exch rlineto closepath} bdef
/FR {MR stroke} bdef
/PR {MR fill} bdef
/L1i {{currentfile picstr readhexstring pop} image} bdef
/tMatrix matrix def
/MakeOval {newpath tMatrix currentmatrix pop translate scale
0 0 1 0 360 arc tMatrix setmatrix} bdef
/FO {MakeOval stroke} bdef
/PO {MakeOval fill} bdef
/PD {currentlinewidth 2 div 0 360 arc fill
   PDlw -1 eq not {PDlw w /PDlw -1 def} if} def
/FA {newpath tMatrix currentmatrix pop translate scale
  0 0 1 5 -2 roll arc tMatrix setmatrix stroke} bdef
/PA {newpath tMatrix currentmatrix pop	translate 0 0 moveto scale
  0 0 1 5 -2 roll arc closepath tMatrix setmatrix fill} bdef
/FAn {newpath tMatrix currentmatrix pop translate scale
  0 0 1 5 -2 roll arcn tMatrix setmatrix stroke} bdef
/PAn {newpath tMatrix currentmatrix pop translate 0 0 moveto scale
  0 0 1 5 -2 roll arcn closepath tMatrix setmatrix fill} bdef
/vradius 0 def /hradius 0 def /lry 0 def
/lrx 0 def /uly 0 def /ulx 0 def /rad 0 def
/MRR {/vradius xdef /hradius xdef /lry xdef /lrx xdef /uly xdef
  /ulx xdef newpath tMatrix currentmatrix pop ulx hradius add uly
  vradius add translate hradius vradius scale 0 0 1 180 270 arc 
  tMatrix setmatrix lrx hradius sub uly vradius add translate
  hradius vradius scale 0 0 1 270 360 arc tMatrix setmatrix
  lrx hradius sub lry vradius sub translate hradius vradius scale
  0 0 1 0 90 arc tMatrix setmatrix ulx hradius add lry vradius sub
  translate hradius vradius scale 0 0 1 90 180 arc tMatrix setmatrix
  closepath} bdef
/FRR {MRR stroke } bdef
/PRR {MRR fill } bdef
/MlrRR {/lry xdef /lrx xdef /uly xdef /ulx xdef /rad lry uly sub 2 div def
  newpath tMatrix currentmatrix pop ulx rad add uly rad add translate
  rad rad scale 0 0 1 90 270 arc tMatrix setmatrix lrx rad sub lry rad
  sub translate rad rad scale 0 0 1 270 90 arc tMatrix setmatrix
  closepath} bdef
/FlrRR {MlrRR stroke } bdef
/PlrRR {MlrRR fill } bdef
/MtbRR {/lry xdef /lrx xdef /uly xdef /ulx xdef /rad lrx ulx sub 2 div def
  newpath tMatrix currentmatrix pop ulx rad add uly rad add translate
  rad rad scale 0 0 1 180 360 arc tMatrix setmatrix lrx rad sub lry rad
  sub translate rad rad scale 0 0 1 0 180 arc tMatrix setmatrix
  closepath} bdef
/FtbRR {MtbRR stroke } bdef
/PtbRR {MtbRR fill } bdef
/stri 6 array def /dtri 6 array def
/smat 6 array def /dmat 6 array def
/tmat1 6 array def /tmat2 6 array def /dif 3 array def
/asub {/ind2 exch def /ind1 exch def dup dup
  ind1 get exch ind2 get sub exch } bdef
/tri_to_matrix {
  2 0 asub 3 1 asub 4 0 asub 5 1 asub
  dup 0 get exch 1 get 7 -1 roll astore } bdef
/compute_transform {
  dmat dtri tri_to_matrix tmat1 invertmatrix 
  smat stri tri_to_matrix tmat2 concatmatrix } bdef
/ds {stri astore pop} bdef
/dt {dtri astore pop} bdef
/db {2 copy /cols xdef /rows xdef mul dup 3 mul string
  currentfile 
  3 index 0 eq {/ASCIIHexDecode filter}
  {/ASCII85Decode filter 3 index 2 eq {/RunLengthDecode filter} if }
  ifelse exch readstring pop
  dup 0 3 index getinterval /rbmap xdef
  dup 2 index dup getinterval /gbmap xdef
  1 index dup 2 mul exch getinterval /bbmap xdef pop pop}bdef
/it {gs np dtri aload pop moveto lineto lineto cp c
  cols rows 8 compute_transform 
  rbmap gbmap bbmap true 3 colorimage gr}bdef
/il {newpath moveto lineto stroke}bdef
currentdict end def
%%EndProlog

%%BeginSetup
MathWorks begin

0 cap

end
%%EndSetup

%%Page: 1 1
%%BeginPageSetup
%%PageBoundingBox:    84   316   509   475
MathWorks begin
bpage
%%EndPageSetup

%%BeginObject: obj1
bplot

/dpi2point 12 def
portraitMode 0780 5712 csm

  236     2  5093  1918 rc
86 dict begin %Colortable dictionary
/c0 { 0.000000 0.000000 0.000000 sr} bdef
/c1 { 1.000000 1.000000 1.000000 sr} bdef
/c2 { 0.900000 0.000000 0.000000 sr} bdef
/c3 { 0.000000 0.820000 0.000000 sr} bdef
/c4 { 0.000000 0.000000 0.800000 sr} bdef
/c5 { 0.910000 0.820000 0.320000 sr} bdef
/c6 { 1.000000 0.260000 0.820000 sr} bdef
/c7 { 0.000000 0.820000 0.820000 sr} bdef
c0
1 j
1 sg
   0    0 5761 1921 rf
6 w
0 1459 4464 0 0 -1459 749 1603 4 MP
PP
-4464 0 0 1459 4464 0 0 -1459 749 1603 5 MP stroke
4 w
DO
0 sg
 749 1603 mt  749  144 L
 749  144 mt  749  144 L
1493 1603 mt 1493  144 L
1493  144 mt 1493  144 L
2237 1603 mt 2237  144 L
2237  144 mt 2237  144 L
2981 1603 mt 2981  144 L
2981  144 mt 2981  144 L
3725 1603 mt 3725  144 L
3725  144 mt 3725  144 L
4469 1603 mt 4469  144 L
4469  144 mt 4469  144 L
5213 1603 mt 5213  144 L
5213  144 mt 5213  144 L
 749 1477 mt 5213 1477 L
5213 1477 mt 5213 1477 L
 749 1275 mt 5213 1275 L
5213 1275 mt 5213 1275 L
 749 1073 mt 5213 1073 L
5213 1073 mt 5213 1073 L
 749  871 mt 5213  871 L
5213  871 mt 5213  871 L
 749  668 mt 5213  668 L
5213  668 mt 5213  668 L
 749  466 mt 5213  466 L
5213  466 mt 5213  466 L
 749  264 mt 5213  264 L
5213  264 mt 5213  264 L
SO
6 w
 749 1603 mt 5213 1603 L
 749  144 mt 5213  144 L
 749 1603 mt  749  144 L
5213 1603 mt 5213  144 L
 749 1603 mt 5213 1603 L
 749 1603 mt  749  144 L
 749 1603 mt  749 1558 L
 749  144 mt  749  188 L
%%IncludeResource: font Helvetica
/Helvetica /ISOLatin1Encoding 120 FMSR

 716 1748 mt 
(0) s
1493 1603 mt 1493 1558 L
1493  144 mt 1493  188 L
1460 1748 mt 
(2) s
2237 1603 mt 2237 1558 L
2237  144 mt 2237  188 L
2204 1748 mt 
(4) s
2981 1603 mt 2981 1558 L
2981  144 mt 2981  188 L
2948 1748 mt 
(6) s
3725 1603 mt 3725 1558 L
3725  144 mt 3725  188 L
3692 1748 mt 
(8) s
4469 1603 mt 4469 1558 L
4469  144 mt 4469  188 L
4403 1748 mt 
(10) s
5213 1603 mt 5213 1558 L
5213  144 mt 5213  188 L
5147 1748 mt 
(12) s
 749 1477 mt  793 1477 L
5213 1477 mt 5168 1477 L
 454 1521 mt 
( 3.0y) s
 749 1275 mt  793 1275 L
5213 1275 mt 5168 1275 L
 454 1319 mt 
( 3.5y) s
 749 1073 mt  793 1073 L
5213 1073 mt 5168 1073 L
 454 1117 mt 
( 4.0y) s
 749  871 mt  793  871 L
5213  871 mt 5168  871 L
 454  915 mt 
( 4.5y) s
 749  668 mt  793  668 L
5213  668 mt 5168  668 L
 454  712 mt 
( 5.0y) s
 749  466 mt  793  466 L
5213  466 mt 5168  466 L
 454  510 mt 
( 5.5y) s
 749  264 mt  793  264 L
5213  264 mt 5168  264 L
 454  308 mt 
( 6.0y) s
 749 1603 mt 5213 1603 L
 749  144 mt 5213  144 L
 749 1603 mt  749  144 L
5213 1603 mt 5213  144 L
gs 749 144 4465 1460 rc
96 w
0.7 sg
3 4 4 4 4 4 3 4 4 5 4 6 4 6 3 6 
4 6 4 7 3 8 4 8 4 8 4 8 3 9 4 10 
4 10 4 10 3 11 4 11 4 11 3 12 4 12 4 13 
4 13 3 13 4 14 4 14 3 15 4 15 4 15 4 16 
3 17 4 16 4 17 3 18 4 18 4 17 4 18 3 17 
4 16 4 16 4 16 3 15 4 15 4 14 3 15 4 13 
4 14 4 12 3 13 4 12 4 12 3 11 4 11 4 10 
4 10 3 10 4 9 4 9 3 8 4 8 4 8 4 7 
3 7 4 7 4 6 4 5 3 6 4 4 4 5 3 4 
4 3 4 4 4 2 3 3 4 2 4 2 3 1 4 1 
2259 265 81 MP stroke
6 w
/c8 { 0.000000 0.000000 1.000000 sr} bdef
c8
4 0 4 0 4 0 3 0 4 0 4 0 4 0 3 0 
4 0 4 0 3 0 4 0 4 0 4 0 3 0 4 0 
4 0 3 0 4 0 4 0 4 0 3 0 4 0 4 0 
3 0 4 0 4 0 4 0 3 0 4 0 4 0 4 0 
3 0 4 0 4 0 3 0 4 0 4 0 4 0 3 0 
4 0 4 0 3 0 4 0 4 0 4 0 3 0 4 0 
4 0 3 0 4 0 4 0 4 0 3 0 4 0 4 0 
4 0 3 0 4 0 4 0 3 0 4 0 4 0 4 0 
3 0 4 0 4 0 3 0 4 0 4 0 4 0 3 0 
4 0 4 0 3 0 4 0 4 0 4 0 3 0 4 0 
4 0 4 0 3 0 4 0 4 0 3 0 4 0 4 0 
4 0 3 0 4 0 4 0 3 0 4 0 4 0 4 0 
3 0 4 0 4 0 3 0 4 0 4 0 4 0 3 0 
4 0 4 0 4 0 3 0 4 0 4 0 3 0 4 0 
4 0 4 0 3 0 4 0 4 0 3 0 4 0 4 0 
4 0 3 0 4 0 4 0 3 0 4 0 4 0 4 0 
3 0 4 0 4 0 4 0 3 0 4 0 4 0 3 0 
4 0 4 0 4 0 3 0 4 0 4 0 3 0 4 0 
4 0 4 0 3 0 4 0 4 0 3 0 4 0 4 0 
4 0 3 0 4 0 4 0 4 -1 3 0 4 0 4 0 
3 0 4 0 4 0 4 0 3 0 4 0 4 0 3 0 
4 0 4 0 4 0 3 0 4 0 4 0 3 0 4 0 
4 0 4 0 3 0 4 0 4 0 4 0 3 0 4 0 
4 0 3 0 4 0 4 0 4 0 3 0 4 0 4 0 
3 0 4 0 4 0 4 0 3 0 4 0 4 0 3 0 
4 0 4 0 4 0 3 0 4 0 4 0 4 0 3 0 
4 0 4 0 3 0 4 0 4 0 4 0 3 0 4 0 
4 0 3 0 4 0 4 0 4 0 3 0 4 0 4 0 
3 0 4 0 4 0 4 0 3 0 4 0 4 0 4 0 
3 0 4 0 4 0 3 0 4 0 4 0 4 0 3 0 
4 0 4 0 3 0 4 0 4 0 4 0 3 0 4 0 
4 0 3 0 4 0 4 0 4 0 3 0 4 0 4 0 
4 0 3 0 4 0 4 0 3 0 4 0 4 0 4 0 
3 0 4 0 4 0 3 0 4 0 4 0 4 0 3 0 
4 0 4 0 3 0 4 0 4 0 4 0 3 0 4 0 
4 0 4 0 3 0 4 0 4 0 3 0 4 0 4 0 
4 0 3 0 4 0 4 0 3 0 4 0 4 0 4 0 
3 0 4 0 4 0 4100 1074 300 MP stroke
3 0 4 0 4 0 4 0 3 0 4 0 4 0 4 0 
3 0 4 0 4 0 3 0 4 0 4 0 4 0 3 0 
4 0 4 0 3 0 4 0 4 0 4 0 3 0 4 0 
4 0 3 0 4 0 4 0 4 0 3 0 4 0 4 0 
4 0 3 0 4 0 4 0 3 0 4 0 4 0 4 0 
3 0 4 0 4 0 3 0 4 0 4 0 4 0 3 0 
4 0 4 0 3 0 4 0 4 0 4 0 3 0 4 0 
4 0 4 0 3 0 4 0 4 0 3 0 4 0 4 0 
4 0 3 0 4 0 4 0 3 0 4 0 4 0 4 0 
3 0 4 0 4 0 3 0 4 0 4 0 4 0 3 0 
4 0 4 0 4 0 3 0 4 0 4 0 3 0 4 0 
4 0 4 0 3 0 4 0 4 0 3 0 4 0 4 0 
4 0 3 0 4 0 4 0 3 0 4 0 4 0 4 0 
3 0 4 0 4 0 4 0 3 0 4 0 4 0 3 0 
4 0 4 0 4 0 3 0 4 0 4 0 3 0 4 0 
4 0 4 0 3 0 4 0 4 0 3 0 4 0 4 0 
4 0 3 0 4 0 4 0 4 0 3 0 4 0 4 0 
3 0 4 0 4 0 4 0 3 0 4 0 4 0 3 0 
4 0 4 0 4 0 3 0 4 0 4 0 3 0 4 0 
4 0 4 0 3 0 4 0 4 0 4 0 3 0 4 0 
4 0 3 0 4 0 4 0 4 0 3 0 4 0 4 0 
3 0 4 0 4 0 4 0 3 0 4 0 4 0 3 0 
4 0 4 -1 4 0 3 0 4 0 4 0 4 0 3 0 
4 0 4 0 3 0 4 0 4 0 4 0 3 0 4 0 
4 0 3 0 4 0 4 0 4 0 3 0 4 0 4 0 
3 0 4 0 4 0 4 0 3 0 4 0 4 0 4 0 
3 0 4 0 4 0 3 0 4 0 4 0 4 0 3 0 
4 0 4 0 3 0 4 0 4 0 4 0 3 0 4 0 
4 0 3 0 4 0 4 0 4 0 3 0 4 0 4 0 
4 0 3 0 4 0 4 0 3 0 4 0 4 0 4 0 
3 0 4 0 4 0 3 0 4 0 4 0 4 0 3 0 
4 0 4 0 3 0 4 0 4 0 4 0 3 0 4 0 
4 0 4 0 3 0 4 0 4 0 3 0 4 0 4 0 
4 0 3 0 4 0 4 0 3 0 4 0 4 0 4 0 
3 0 4 0 4 0 3 0 4 0 4 0 4 0 3 0 
4 0 4 0 4 0 3 0 4 0 4 0 3 0 4 0 
4 0 4 0 3 0 4 0 4 0 3 0 4 0 4 0 
4 0 3 0 4 0 2988 1075 300 MP stroke
4 0 3 0 4 0 4 0 4 0 3 0 4 0 4 0 
4 0 3 0 4 0 4 0 3 0 4 0 4 0 4 0 
3 0 4 0 4 0 3 0 4 0 4 0 4 0 3 0 
4 0 4 0 3 0 4 0 4 0 4 0 3 0 4 0 
4 0 4 0 3 0 4 0 4 0 3 0 4 0 4 0 
4 0 3 0 4 0 4 0 3 0 4 0 4 0 4 0 
3 0 4 0 4 0 3 0 4 0 4 0 4 -1 3 0 
4 0 4 0 4 0 3 0 4 0 4 0 3 0 4 0 
4 0 4 0 3 0 4 0 4 0 3 0 4 0 4 0 
4 0 3 0 4 0 4 0 3 0 4 0 4 0 4 0 
3 0 4 0 4 0 4 0 3 0 4 0 4 0 3 0 
4 0 4 0 4 0 3 0 4 0 4 0 3 0 4 0 
4 0 4 0 3 0 4 0 4 0 3 0 4 0 4 0 
4 1 3 1 4 2 4 2 4 2 3 3 4 2 4 2 
3 2 4 1 4 1 4 0 3 4 4 4 4 4 3 4 
4 5 4 6 4 6 3 6 4 6 4 7 3 8 4 8 
4 8 4 8 3 9 4 10 4 10 4 10 3 11 4 11 
4 11 3 12 4 12 4 13 4 13 3 13 4 14 4 14 
3 15 4 15 4 15 4 16 3 17 4 16 4 17 3 18 
4 18 4 17 4 18 3 17 4 16 4 16 4 16 3 15 
4 15 4 14 3 15 4 13 4 14 4 12 3 13 4 12 
4 12 3 11 4 11 4 10 4 10 3 10 4 9 4 9 
3 8 4 8 4 8 4 7 3 7 4 7 4 6 4 5 
3 6 4 4 4 5 3 4 4 3 4 4 4 2 3 3 
4 2 4 2 3 1 4 1 4 0 4 0 3 0 4 0 
4 0 3 0 4 0 4 0 4 0 3 0 4 0 4 0 
4 0 3 0 4 0 4 0 3 0 4 0 4 0 4 0 
3 0 4 0 4 0 3 0 4 0 4 0 4 0 3 0 
4 0 4 0 3 0 4 0 4 0 4 0 3 0 4 0 
4 0 4 0 3 0 4 0 4 0 3 0 4 0 4 0 
4 0 3 0 4 0 4 0 3 0 4 0 4 0 4 0 
3 0 4 0 4 0 3 0 4 0 4 0 4 0 3 0 
4 0 4 0 4 0 3 0 4 0 4 0 3 0 4 0 
4 0 4 0 3 0 4 0 4 0 3 0 4 0 4 0 
4 0 3 0 4 0 4 0 3 0 4 0 4 0 4 0 
3 0 4 -1 4 0 4 0 3 0 4 0 4 0 3 0 
4 0 4 0 4 0 3 0 4 0 4 0 3 0 4 0 
4 0 4 0 3 0 1876 266 300 MP stroke
4 0 4 0 3 0 4 0 4 0 4 0 3 0 4 0 
4 0 4 0 3 0 4 0 4 0 3 0 4 0 4 0 
4 0 3 0 4 0 4 0 3 0 4 0 4 0 4 0 
3 0 4 0 4 0 3 0 4 0 4 0 4 0 3 0 
4 0 4 0 4 0 3 0 4 0 4 0 3 0 4 0 
4 0 4 0 3 0 4 0 4 0 3 0 4 0 4 0 
4 0 3 0 4 0 4 0 3 0 4 0 4 0 4 0 
3 0 4 0 4 0 4 0 3 0 4 0 4 0 3 0 
4 0 4 0 4 0 3 0 4 0 4 0 3 0 4 0 
4 0 4 0 3 0 4 0 4 0 3 0 4 0 4 0 
4 0 3 0 4 0 4 0 4 0 3 0 4 0 4 0 
3 0 4 0 4 0 4 0 3 0 4 0 4 0 3 0 
4 0 4 0 4 0 3 0 4 0 4 0 3 -1 4 0 
4 0 4 0 3 0 4 0 4 0 4 0 3 0 4 0 
4 0 3 0 4 0 4 0 4 0 3 0 4 0 4 0 
3 0 4 0 4 0 4 0 3 0 4 0 4 0 3 0 
4 0 4 0 4 0 3 0 4 0 4 0 4 0 3 0 
4 0 4 0 3 0 4 0 4 0 4 0 3 0 4 0 
4 0 3 0 4 0 4 0 4 0 3 0 4 0 4 0 
3 0 4 0 4 0 4 0 3 0 4 0 4 0 4 0 
3 0 4 0 4 0 3 0 4 0 4 0 4 0 3 0 
4 0 4 0 3 0 4 0 4 0 4 0 3 0 4 0 
4 0 3 -1 4 0 4 0 4 0 3 0 4 0 4 0 
4 0 3 0 4 0 4 0 3 0 4 0 4 0 4 0 
3 0 4 0 4 -1 3 -1 4 -1 4 -2 4 -3 3 -2 
4 -4 4 -3 3 -4 4 -4 4 -5 4 -5 3 -6 4 -6 
4 -6 4 -7 3 -7 4 -8 4 -7 3 -9 4 -9 4 -9 
4 -9 3 -10 4 -11 4 -10 3 -12 4 -11 4 -12 4 -13 
3 -12 4 -14 4 -13 3 -14 4 -15 4 -14 4 -16 3 -15 
4 -16 4 -17 4 -16 3 -18 4 -17 4 -18 3 -19 4 -19 
4 -19 4 -19 3 -20 4 -21 4 -21 3 -21 4 -22 4 -22 
4 -21 3 -22 4 -21 4 -20 3 -20 4 -20 4 -19 4 -19 
3 -19 4 -18 4 -18 4 -17 3 -17 4 -17 4 -16 3 -15 
4 -16 4 -15 4 -14 3 -14 4 -14 4 -13 3 -13 4 -13 
4 -12 4 -11 3 -12 4 -11 4 -10 3 -10 4 -10 4 -9 
4 -9 3 -8 4 -8 4 -8 4 -7 3 -7 4 -7 4 -6 
3 -5 4 -5 4 -5 4 -5 3 -4 4 -3 4 -4 3 -2 
4 -3 4 -2 4 -1 763 1478 300 MP stroke
3 -2 4 -1 4 0 3 0 749 1481 5 MP stroke
gr

c8
0 sg
 372 1435 mt  -90 rotate
(Gripper opening [cm]) s
90 rotate
gs 749 144 4465 1460 rc
DD
0 -1459 2255 1603 2 MP stroke
gr

DD
1429 1353 mt 
(S1) s
gs 749 144 4465 1460 rc
0 -1459 2556 1603 2 MP stroke
gr

2333 1353 mt 
(S2) s
gs 749 144 4465 1460 rc
0 -1459 5027 1603 2 MP stroke
gr

3718 1353 mt 
(S3) s
2767 1891 mt 
(Time [s]) s
 732 1646 mt 
( ) s
5197  186 mt 
( ) s
SO
1 sg
0 334 1136 0 0 -334 4017 538 4 MP
PP
-1136 0 0 334 1136 0 0 -334 4017 538 5 MP stroke
4 w
DO
SO
6 w
0 sg
4017  538 mt 5153  538 L
4017  204 mt 5153  204 L
4017  538 mt 4017  204 L
5153  538 mt 5153  204 L
4017  538 mt 5153  538 L
4017  538 mt 4017  204 L
4017  538 mt 5153  538 L
4017  204 mt 5153  204 L
4017  538 mt 4017  204 L
5153  538 mt 5153  204 L
4477  340 mt 
(exp_gripper) s
gs 4017 204 1137 335 rc
c8
354 0 4087 297 2 MP stroke
gr

c8
0 sg
4477  487 mt 
(mon) s
gs 4017 204 1137 335 rc
96 w
0.7 sg
354 0 4087 444 2 MP stroke
6 w
gr

0.7 sg

end %%Color Dict

eplot
%%EndObject

epage
end

showpage

%%Trailer
%%BoundingBox:    84   316   509   475
%%Pages: 001
%%EOF
