%!PS-Adobe-2.0 EPSF-2.0
%%Title: /home/apertuscus/temp/14_Geometric_constraints/images/line-point.dia
%%Creator: Dia v0.97.2
%%CreationDate: Fri Oct 17 12:04:04 2014
%%For: apertuscus
%%Orientation: Portrait
%%Magnification: 1.0000
%%BoundingBox: 0 0 347 402
%%BeginSetup
%%EndSetup
%%EndComments
%%BeginProlog
[ /.notdef /.notdef /.notdef /.notdef /.notdef /.notdef /.notdef /.notdef /.notdef /.notdef
/.notdef /.notdef /.notdef /.notdef /.notdef /.notdef /.notdef /.notdef /.notdef /.notdef
/.notdef /.notdef /.notdef /.notdef /.notdef /.notdef /.notdef /.notdef /.notdef /.notdef
/.notdef /.notdef /space /exclam /quotedbl /numbersign /dollar /percent /ampersand /quoteright
/parenleft /parenright /asterisk /plus /comma /hyphen /period /slash /zero /one
/two /three /four /five /six /seven /eight /nine /colon /semicolon
/less /equal /greater /question /at /A /B /C /D /E
/F /G /H /I /J /K /L /M /N /O
/P /Q /R /S /T /U /V /W /X /Y
/Z /bracketleft /backslash /bracketright /asciicircum /underscore /quoteleft /a /b /c
/d /e /f /g /h /i /j /k /l /m
/n /o /p /q /r /s /t /u /v /w
/x /y /z /braceleft /bar /braceright /asciitilde /.notdef /.notdef /.notdef
/.notdef /.notdef /.notdef /.notdef /.notdef /.notdef /.notdef /.notdef /.notdef /.notdef
/.notdef /.notdef /.notdef /.notdef /.notdef /.notdef /.notdef /.notdef /.notdef /.notdef
/.notdef /.notdef /.notdef /.notdef /.notdef /.notdef /.notdef /.notdef /.notdef /.notdef
/space /exclamdown /cent /sterling /currency /yen /brokenbar /section /dieresis /copyright
/ordfeminine /guillemotleft /logicalnot /hyphen /registered /macron /degree /plusminus /twosuperior /threesuperior
/acute /mu /paragraph /periodcentered /cedilla /onesuperior /ordmasculine /guillemotright /onequarter /onehalf
/threequarters /questiondown /Agrave /Aacute /Acircumflex /Atilde /Adieresis /Aring /AE /Ccedilla
/Egrave /Eacute /Ecircumflex /Edieresis /Igrave /Iacute /Icircumflex /Idieresis /Eth /Ntilde
/Ograve /Oacute /Ocircumflex /Otilde /Odieresis /multiply /Oslash /Ugrave /Uacute /Ucircumflex
/Udieresis /Yacute /Thorn /germandbls /agrave /aacute /acircumflex /atilde /adieresis /aring
/ae /ccedilla /egrave /eacute /ecircumflex /edieresis /igrave /iacute /icircumflex /idieresis
/eth /ntilde /ograve /oacute /ocircumflex /otilde /odieresis /divide /oslash /ugrave
/uacute /ucircumflex /udieresis /yacute /thorn /ydieresis] /isolatin1encoding exch def
/cp {closepath} bind def
/c {curveto} bind def
/f {fill} bind def
/a {arc} bind def
/ef {eofill} bind def
/ex {exch} bind def
/gr {grestore} bind def
/gs {gsave} bind def
/sa {save} bind def
/rs {restore} bind def
/l {lineto} bind def
/m {moveto} bind def
/rm {rmoveto} bind def
/n {newpath} bind def
/s {stroke} bind def
/sh {show} bind def
/slc {setlinecap} bind def
/slj {setlinejoin} bind def
/slw {setlinewidth} bind def
/srgb {setrgbcolor} bind def
/rot {rotate} bind def
/sc {scale} bind def
/sd {setdash} bind def
/ff {findfont} bind def
/sf {setfont} bind def
/scf {scalefont} bind def
/sw {stringwidth pop} bind def
/tr {translate} bind def

/ellipsedict 8 dict def
ellipsedict /mtrx matrix put
/ellipse
{ ellipsedict begin
   /endangle exch def
   /startangle exch def
   /yrad exch def
   /xrad exch def
   /y exch def
   /x exch def   /savematrix mtrx currentmatrix def
   x y tr xrad yrad sc
   0 0 1 startangle endangle arc
   savematrix setmatrix
   end
} def

/mergeprocs {
dup length
3 -1 roll
dup
length
dup
5 1 roll
3 -1 roll
add
array cvx
dup
3 -1 roll
0 exch
putinterval
dup
4 2 roll
putinterval
} bind def
/Times-Roman-latin1
    /Times-Roman findfont
    dup length dict begin
	{1 index /FID ne {def} {pop pop} ifelse} forall
	/Encoding isolatin1encoding def
    currentdict end
definefont pop
/Times-Italic-latin1
    /Times-Italic findfont
    dup length dict begin
	{1 index /FID ne {def} {pop pop} ifelse} forall
	/Encoding isolatin1encoding def
    currentdict end
definefont pop
/Times-Bold-latin1
    /Times-Bold findfont
    dup length dict begin
	{1 index /FID ne {def} {pop pop} ifelse} forall
	/Encoding isolatin1encoding def
    currentdict end
definefont pop
/Times-BoldItalic-latin1
    /Times-BoldItalic findfont
    dup length dict begin
	{1 index /FID ne {def} {pop pop} ifelse} forall
	/Encoding isolatin1encoding def
    currentdict end
definefont pop
/AvantGarde-Gothic-latin1
    /AvantGarde-Gothic findfont
    dup length dict begin
	{1 index /FID ne {def} {pop pop} ifelse} forall
	/Encoding isolatin1encoding def
    currentdict end
definefont pop
/AvantGarde-BookOblique-latin1
    /AvantGarde-BookOblique findfont
    dup length dict begin
	{1 index /FID ne {def} {pop pop} ifelse} forall
	/Encoding isolatin1encoding def
    currentdict end
definefont pop
/AvantGarde-Demi-latin1
    /AvantGarde-Demi findfont
    dup length dict begin
	{1 index /FID ne {def} {pop pop} ifelse} forall
	/Encoding isolatin1encoding def
    currentdict end
definefont pop
/AvantGarde-DemiOblique-latin1
    /AvantGarde-DemiOblique findfont
    dup length dict begin
	{1 index /FID ne {def} {pop pop} ifelse} forall
	/Encoding isolatin1encoding def
    currentdict end
definefont pop
/Bookman-Light-latin1
    /Bookman-Light findfont
    dup length dict begin
	{1 index /FID ne {def} {pop pop} ifelse} forall
	/Encoding isolatin1encoding def
    currentdict end
definefont pop
/Bookman-LightItalic-latin1
    /Bookman-LightItalic findfont
    dup length dict begin
	{1 index /FID ne {def} {pop pop} ifelse} forall
	/Encoding isolatin1encoding def
    currentdict end
definefont pop
/Bookman-Demi-latin1
    /Bookman-Demi findfont
    dup length dict begin
	{1 index /FID ne {def} {pop pop} ifelse} forall
	/Encoding isolatin1encoding def
    currentdict end
definefont pop
/Bookman-DemiItalic-latin1
    /Bookman-DemiItalic findfont
    dup length dict begin
	{1 index /FID ne {def} {pop pop} ifelse} forall
	/Encoding isolatin1encoding def
    currentdict end
definefont pop
/Courier-latin1
    /Courier findfont
    dup length dict begin
	{1 index /FID ne {def} {pop pop} ifelse} forall
	/Encoding isolatin1encoding def
    currentdict end
definefont pop
/Courier-Oblique-latin1
    /Courier-Oblique findfont
    dup length dict begin
	{1 index /FID ne {def} {pop pop} ifelse} forall
	/Encoding isolatin1encoding def
    currentdict end
definefont pop
/Courier-Bold-latin1
    /Courier-Bold findfont
    dup length dict begin
	{1 index /FID ne {def} {pop pop} ifelse} forall
	/Encoding isolatin1encoding def
    currentdict end
definefont pop
/Courier-BoldOblique-latin1
    /Courier-BoldOblique findfont
    dup length dict begin
	{1 index /FID ne {def} {pop pop} ifelse} forall
	/Encoding isolatin1encoding def
    currentdict end
definefont pop
/Helvetica-latin1
    /Helvetica findfont
    dup length dict begin
	{1 index /FID ne {def} {pop pop} ifelse} forall
	/Encoding isolatin1encoding def
    currentdict end
definefont pop
/Helvetica-Oblique-latin1
    /Helvetica-Oblique findfont
    dup length dict begin
	{1 index /FID ne {def} {pop pop} ifelse} forall
	/Encoding isolatin1encoding def
    currentdict end
definefont pop
/Helvetica-Bold-latin1
    /Helvetica-Bold findfont
    dup length dict begin
	{1 index /FID ne {def} {pop pop} ifelse} forall
	/Encoding isolatin1encoding def
    currentdict end
definefont pop
/Helvetica-BoldOblique-latin1
    /Helvetica-BoldOblique findfont
    dup length dict begin
	{1 index /FID ne {def} {pop pop} ifelse} forall
	/Encoding isolatin1encoding def
    currentdict end
definefont pop
/Helvetica-Narrow-latin1
    /Helvetica-Narrow findfont
    dup length dict begin
	{1 index /FID ne {def} {pop pop} ifelse} forall
	/Encoding isolatin1encoding def
    currentdict end
definefont pop
/Helvetica-Narrow-Oblique-latin1
    /Helvetica-Narrow-Oblique findfont
    dup length dict begin
	{1 index /FID ne {def} {pop pop} ifelse} forall
	/Encoding isolatin1encoding def
    currentdict end
definefont pop
/Helvetica-Narrow-Bold-latin1
    /Helvetica-Narrow-Bold findfont
    dup length dict begin
	{1 index /FID ne {def} {pop pop} ifelse} forall
	/Encoding isolatin1encoding def
    currentdict end
definefont pop
/Helvetica-Narrow-BoldOblique-latin1
    /Helvetica-Narrow-BoldOblique findfont
    dup length dict begin
	{1 index /FID ne {def} {pop pop} ifelse} forall
	/Encoding isolatin1encoding def
    currentdict end
definefont pop
/NewCenturySchlbk-Roman-latin1
    /NewCenturySchlbk-Roman findfont
    dup length dict begin
	{1 index /FID ne {def} {pop pop} ifelse} forall
	/Encoding isolatin1encoding def
    currentdict end
definefont pop
/NewCenturySchlbk-Italic-latin1
    /NewCenturySchlbk-Italic findfont
    dup length dict begin
	{1 index /FID ne {def} {pop pop} ifelse} forall
	/Encoding isolatin1encoding def
    currentdict end
definefont pop
/NewCenturySchlbk-Bold-latin1
    /NewCenturySchlbk-Bold findfont
    dup length dict begin
	{1 index /FID ne {def} {pop pop} ifelse} forall
	/Encoding isolatin1encoding def
    currentdict end
definefont pop
/NewCenturySchlbk-BoldItalic-latin1
    /NewCenturySchlbk-BoldItalic findfont
    dup length dict begin
	{1 index /FID ne {def} {pop pop} ifelse} forall
	/Encoding isolatin1encoding def
    currentdict end
definefont pop
/Palatino-Roman-latin1
    /Palatino-Roman findfont
    dup length dict begin
	{1 index /FID ne {def} {pop pop} ifelse} forall
	/Encoding isolatin1encoding def
    currentdict end
definefont pop
/Palatino-Italic-latin1
    /Palatino-Italic findfont
    dup length dict begin
	{1 index /FID ne {def} {pop pop} ifelse} forall
	/Encoding isolatin1encoding def
    currentdict end
definefont pop
/Palatino-Bold-latin1
    /Palatino-Bold findfont
    dup length dict begin
	{1 index /FID ne {def} {pop pop} ifelse} forall
	/Encoding isolatin1encoding def
    currentdict end
definefont pop
/Palatino-BoldItalic-latin1
    /Palatino-BoldItalic findfont
    dup length dict begin
	{1 index /FID ne {def} {pop pop} ifelse} forall
	/Encoding isolatin1encoding def
    currentdict end
definefont pop
/Symbol-latin1
    /Symbol findfont
definefont pop
/ZapfChancery-MediumItalic-latin1
    /ZapfChancery-MediumItalic findfont
    dup length dict begin
	{1 index /FID ne {def} {pop pop} ifelse} forall
	/Encoding isolatin1encoding def
    currentdict end
definefont pop
/ZapfDingbats-latin1
    /ZapfDingbats findfont
    dup length dict begin
	{1 index /FID ne {def} {pop pop} ifelse} forall
	/Encoding isolatin1encoding def
    currentdict end
definefont pop
28.346000 -28.346000 scale
-17.450000 -6.987500 translate
%%EndProlog


0.100000 slw
[] 0 sd
[] 0 sd
1 slj
0.000000 0.000000 0.000000 srgb
n 18.000000 -7.112500 m 29.000000 -7.112500 l s
n 18.000000 6.937500 m 29.000000 6.937500 l s
n 18.000000 -6.612500 0.500000 0.500000 180.000000 270.000000 ellipse s
n 29.000000 -6.612500 0.500000 0.500000 270.000000 360.000000 ellipse s
n 17.500000 -6.612500 m 17.500000 6.437500 l s
n 29.500000 -6.612500 m 29.500000 6.437500 l s
n 18.000000 6.437500 0.500000 0.500000 90.000000 180.000000 ellipse s
n 29.000000 6.437500 0.500000 0.500000 0.000000 90.000000 ellipse s
0.350000 slw
[] 0 sd
[] 0 sd
0 slc
0.980392 0.490196 0.490196 srgb
n 23.354758 5.352461 m 28.516642 -5.831621 l s
0.350000 slw
[] 0 sd
n 22.935700 6.260420 m 23.019512 6.078828 l s
n 23.075386 5.957767 m 23.159198 5.776175 l s
n 23.215072 5.655114 m 23.298884 5.473522 l s
0.350000 slw
[] 0 sd
n 28.935700 -6.739580 m 28.851888 -6.557988 l s
n 28.796014 -6.436927 m 28.712202 -6.255335 l s
n 28.656328 -6.134274 m 28.572516 -5.952682 l s
/Helvetica-latin1 ff 0.740833 scf sf
0.000000 0.000000 0.000000 srgb
(p2) dup sw 2 div 18.725000 ex sub -4.192917 m
 gs 1 -1 sc sh gr
/Helvetica-latin1 ff 0.740833 scf sf
(p1) dup sw 2 div 23.450900 ex sub 2.627663 m
 gs 1 -1 sc sh gr
0.100000 slw
[] 0 sd
[] 0 sd
0 slc
n 24.000000 4.000000 m 28.455935 -5.609641 l s
0.100000 slw
[] 0 sd
0 slj
0 slc
n 24.000000 4.000000 m 23.886598 3.947416 23.825780 3.781431 23.878364 3.668029 c 23.930948 3.554627 24.096933 3.493809 24.210335 3.546393 c 24.323737 3.598977 24.384555 3.764962 24.331971 3.878364 c 24.279387 3.991766 24.113402 4.052584 24.000000 4.000000 c ef
n 24.000000 4.000000 m 23.886598 3.947416 23.825780 3.781431 23.878364 3.668029 c 23.930948 3.554627 24.096933 3.493809 24.210335 3.546393 c 24.323737 3.598977 24.384555 3.764962 24.331971 3.878364 c 24.279387 3.991766 24.113402 4.052584 24.000000 4.000000 c s
0.100000 slw
[] 0 sd
0 slj
0 slc
n 28.519436 -5.152296 m 28.502968 -5.711070 l 28.065829 -5.362631 l s
0.050000 slw
[] 0 sd
[] 0 sd
0 slj
0 slc
n 27.800000 -4.000000 m 29.300000 -4.000000 26.000000 0.500000 27.500000 0.500000 c s
0.050000 slw
[] 0 sd
[] 0 sd
0 slj
0 slc
n 24.000000 4.000000 m 25.500000 4.000000 26.000000 0.500000 27.500000 0.500000 c s
/Helvetica-latin1 ff 0.740833 scf sf
(f1) dup sw 2 div 27.950000 ex sub 0.582083 m
 gs 1 -1 sc sh gr
/Helvetica-latin1 ff 0.740833 scf sf
(fp1) dup sw 2 div 29.000000 ex sub -4.417917 m
 gs 1 -1 sc sh gr
/Helvetica-latin1 ff 0.740833 scf sf
(v1) dup sw 2 div 27.800000 ex sub -5.792917 m
 gs 1 -1 sc sh gr
/Helvetica-latin1 ff 0.740833 scf sf
(o2) dup sw 2 div 20.400000 ex sub -0.917917 m
 gs 1 -1 sc sh gr
0.100000 slw
[] 0 sd
[] 0 sd
0 slc
n 19.000000 0.000000 m 19.000000 -2.276393 l s
0.100000 slw
[] 0 sd
0 slj
0 slc
n 19.250000 -1.888197 m 19.000000 -2.388197 l 18.750000 -1.888197 l s
0.100000 slw
[] 0 sd
[] 0 sd
0 slc
n 19.000000 0.000000 m 21.276393 0.000000 l s
0.100000 slw
[] 0 sd
0 slj
0 slc
n 20.888197 0.250000 m 21.388197 0.000000 l 20.888197 -0.250000 l s
0.100000 slw
[] 0 sd
[] 0 sd
0 slc
n 19.000000 0.000000 m 18.158114 0.841886 l s
0.100000 slw
[] 0 sd
0 slj
0 slc
n 18.255834 0.390613 m 18.079057 0.920943 l 18.609387 0.744166 l s
0.050000 slw
[0.200000] 0 sd
[0.200000] 0 sd
0 slc
n 20.300000 -4.125000 m 19.000000 0.000000 l s
0.050000 slw
[] 0 sd
[] 0 sd
0 slj
0 slc
n 24.050000 -3.150000 m 24.050000 -4.150000 20.050000 -3.150000 20.050000 -4.150000 c s
0.050000 slw
[] 0 sd
[] 0 sd
0 slj
0 slc
n 24.050000 -3.150000 m 24.050000 -4.150000 28.050000 -3.150000 28.050000 -4.150000 c s
/Helvetica-latin1 ff 0.740833 scf sf
(d) dup sw 2 div 24.050000 ex sub -2.567917 m
 gs 1 -1 sc sh gr
0.200000 slw
[0.200000] 0 sd
[0.400000] 0 sd
0 slc
n 20.050000 -4.200000 m 28.050000 -4.200000 l s
0.200000 slw
[] 0 sd
0 slj
0 slc
n 20.050000 -4.200000 m 20.050000 -4.325000 20.175000 -4.450000 20.300000 -4.450000 c 20.425000 -4.450000 20.550000 -4.325000 20.550000 -4.200000 c 20.550000 -4.075000 20.425000 -3.950000 20.300000 -3.950000 c 20.175000 -3.950000 20.050000 -4.075000 20.050000 -4.200000 c ef
n 20.050000 -4.200000 m 20.050000 -4.325000 20.175000 -4.450000 20.300000 -4.450000 c 20.425000 -4.450000 20.550000 -4.325000 20.550000 -4.200000 c 20.550000 -4.075000 20.425000 -3.950000 20.300000 -3.950000 c 20.175000 -3.950000 20.050000 -4.075000 20.050000 -4.200000 c s
0.200000 slw
[] 0 sd
0 slj
0 slc
n 28.050000 -4.200000 m 28.050000 -4.075000 27.925000 -3.950000 27.800000 -3.950000 c 27.675000 -3.950000 27.550000 -4.075000 27.550000 -4.200000 c 27.550000 -4.325000 27.675000 -4.450000 27.800000 -4.450000 c 27.925000 -4.450000 28.050000 -4.325000 28.050000 -4.200000 c ef
n 28.050000 -4.200000 m 28.050000 -4.075000 27.925000 -3.950000 27.800000 -3.950000 c 27.675000 -3.950000 27.550000 -4.075000 27.550000 -4.200000 c 27.550000 -4.325000 27.675000 -4.450000 27.800000 -4.450000 c 27.925000 -4.450000 28.050000 -4.325000 28.050000 -4.200000 c s
0.050000 slw
[] 0 sd
[] 0 sd
0 slc
n 27.133300 -5.159490 m 28.133300 -5.159490 l s
0.050000 slw
[] 0 sd
[] 0 sd
0 slc
n 26.708000 -4.178560 m 27.140700 -5.157020 l s
0.050000 slw
[0.200000] 0 sd
[0.200000] 0 sd
0 slc
n 24.178900 3.725000 m 20.000000 5.000000 l s
/Helvetica-latin1 ff 0.740833 scf sf
(l1) dup sw 2 div 24.500000 ex sub 6.082083 m
 gs 1 -1 sc sh gr
/Helvetica-latin1 ff 0.740833 scf sf
(o1) dup sw 2 div 21.000000 ex sub 4.082083 m
 gs 1 -1 sc sh gr
0.100000 slw
[] 0 sd
[] 0 sd
0 slc
n 20.000000 5.000000 m 20.000000 2.723607 l s
0.100000 slw
[] 0 sd
0 slj
0 slc
n 20.250000 3.111803 m 20.000000 2.611803 l 19.750000 3.111803 l s
0.100000 slw
[] 0 sd
[] 0 sd
0 slc
n 20.000000 5.000000 m 22.276393 5.000000 l s
0.100000 slw
[] 0 sd
0 slj
0 slc
n 21.888197 5.250000 m 22.388197 5.000000 l 21.888197 4.750000 l s
0.100000 slw
[] 0 sd
[] 0 sd
0 slc
n 20.000000 5.000000 m 19.158114 5.841886 l s
0.100000 slw
[] 0 sd
0 slj
0 slc
n 19.255834 5.390613 m 19.079057 5.920943 l 19.609387 5.744166 l s
showpage
