%!PS-Adobe-2.0 EPSF-2.0
%%Title: /home/gianni/temp/gianni/13_Geometric_constraints/images/line-line.dia
%%Creator: Dia v0.97.2
%%CreationDate: Fri Oct 25 14:55:22 2013
%%For: gianni
%%Orientation: Portrait
%%Magnification: 1.0000
%%BoundingBox: 0 0 499 402
%%BeginSetup
%%EndSetup
%%EndComments
%%BeginProlog
[ /.notdef /.notdef /.notdef /.notdef /.notdef /.notdef /.notdef /.notdef /.notdef /.notdef
/.notdef /.notdef /.notdef /.notdef /.notdef /.notdef /.notdef /.notdef /.notdef /.notdef
/.notdef /.notdef /.notdef /.notdef /.notdef /.notdef /.notdef /.notdef /.notdef /.notdef
/.notdef /.notdef /space /exclam /quotedbl /numbersign /dollar /percent /ampersand /quoteright
/parenleft /parenright /asterisk /plus /comma /hyphen /period /slash /zero /one
/two /three /four /five /six /seven /eight /nine /colon /semicolon
/less /equal /greater /question /at /A /B /C /D /E
/F /G /H /I /J /K /L /M /N /O
/P /Q /R /S /T /U /V /W /X /Y
/Z /bracketleft /backslash /bracketright /asciicircum /underscore /quoteleft /a /b /c
/d /e /f /g /h /i /j /k /l /m
/n /o /p /q /r /s /t /u /v /w
/x /y /z /braceleft /bar /braceright /asciitilde /.notdef /.notdef /.notdef
/.notdef /.notdef /.notdef /.notdef /.notdef /.notdef /.notdef /.notdef /.notdef /.notdef
/.notdef /.notdef /.notdef /.notdef /.notdef /.notdef /.notdef /.notdef /.notdef /.notdef
/.notdef /.notdef /.notdef /.notdef /.notdef /.notdef /.notdef /.notdef /.notdef /.notdef
/space /exclamdown /cent /sterling /currency /yen /brokenbar /section /dieresis /copyright
/ordfeminine /guillemotleft /logicalnot /hyphen /registered /macron /degree /plusminus /twosuperior /threesuperior
/acute /mu /paragraph /periodcentered /cedilla /onesuperior /ordmasculine /guillemotright /onequarter /onehalf
/threequarters /questiondown /Agrave /Aacute /Acircumflex /Atilde /Adieresis /Aring /AE /Ccedilla
/Egrave /Eacute /Ecircumflex /Edieresis /Igrave /Iacute /Icircumflex /Idieresis /Eth /Ntilde
/Ograve /Oacute /Ocircumflex /Otilde /Odieresis /multiply /Oslash /Ugrave /Uacute /Ucircumflex
/Udieresis /Yacute /Thorn /germandbls /agrave /aacute /acircumflex /atilde /adieresis /aring
/ae /ccedilla /egrave /eacute /ecircumflex /edieresis /igrave /iacute /icircumflex /idieresis
/eth /ntilde /ograve /oacute /ocircumflex /otilde /odieresis /divide /oslash /ugrave
/uacute /ucircumflex /udieresis /yacute /thorn /ydieresis] /isolatin1encoding exch def
/cp {closepath} bind def
/c {curveto} bind def
/f {fill} bind def
/a {arc} bind def
/ef {eofill} bind def
/ex {exch} bind def
/gr {grestore} bind def
/gs {gsave} bind def
/sa {save} bind def
/rs {restore} bind def
/l {lineto} bind def
/m {moveto} bind def
/rm {rmoveto} bind def
/n {newpath} bind def
/s {stroke} bind def
/sh {show} bind def
/slc {setlinecap} bind def
/slj {setlinejoin} bind def
/slw {setlinewidth} bind def
/srgb {setrgbcolor} bind def
/rot {rotate} bind def
/sc {scale} bind def
/sd {setdash} bind def
/ff {findfont} bind def
/sf {setfont} bind def
/scf {scalefont} bind def
/sw {stringwidth pop} bind def
/tr {translate} bind def

/ellipsedict 8 dict def
ellipsedict /mtrx matrix put
/ellipse
{ ellipsedict begin
   /endangle exch def
   /startangle exch def
   /yrad exch def
   /xrad exch def
   /y exch def
   /x exch def   /savematrix mtrx currentmatrix def
   x y tr xrad yrad sc
   0 0 1 startangle endangle arc
   savematrix setmatrix
   end
} def

/mergeprocs {
dup length
3 -1 roll
dup
length
dup
5 1 roll
3 -1 roll
add
array cvx
dup
3 -1 roll
0 exch
putinterval
dup
4 2 roll
putinterval
} bind def
/Times-Roman-latin1
    /Times-Roman findfont
    dup length dict begin
	{1 index /FID ne {def} {pop pop} ifelse} forall
	/Encoding isolatin1encoding def
    currentdict end
definefont pop
/Times-Italic-latin1
    /Times-Italic findfont
    dup length dict begin
	{1 index /FID ne {def} {pop pop} ifelse} forall
	/Encoding isolatin1encoding def
    currentdict end
definefont pop
/Times-Bold-latin1
    /Times-Bold findfont
    dup length dict begin
	{1 index /FID ne {def} {pop pop} ifelse} forall
	/Encoding isolatin1encoding def
    currentdict end
definefont pop
/Times-BoldItalic-latin1
    /Times-BoldItalic findfont
    dup length dict begin
	{1 index /FID ne {def} {pop pop} ifelse} forall
	/Encoding isolatin1encoding def
    currentdict end
definefont pop
/AvantGarde-Gothic-latin1
    /AvantGarde-Gothic findfont
    dup length dict begin
	{1 index /FID ne {def} {pop pop} ifelse} forall
	/Encoding isolatin1encoding def
    currentdict end
definefont pop
/AvantGarde-BookOblique-latin1
    /AvantGarde-BookOblique findfont
    dup length dict begin
	{1 index /FID ne {def} {pop pop} ifelse} forall
	/Encoding isolatin1encoding def
    currentdict end
definefont pop
/AvantGarde-Demi-latin1
    /AvantGarde-Demi findfont
    dup length dict begin
	{1 index /FID ne {def} {pop pop} ifelse} forall
	/Encoding isolatin1encoding def
    currentdict end
definefont pop
/AvantGarde-DemiOblique-latin1
    /AvantGarde-DemiOblique findfont
    dup length dict begin
	{1 index /FID ne {def} {pop pop} ifelse} forall
	/Encoding isolatin1encoding def
    currentdict end
definefont pop
/Bookman-Light-latin1
    /Bookman-Light findfont
    dup length dict begin
	{1 index /FID ne {def} {pop pop} ifelse} forall
	/Encoding isolatin1encoding def
    currentdict end
definefont pop
/Bookman-LightItalic-latin1
    /Bookman-LightItalic findfont
    dup length dict begin
	{1 index /FID ne {def} {pop pop} ifelse} forall
	/Encoding isolatin1encoding def
    currentdict end
definefont pop
/Bookman-Demi-latin1
    /Bookman-Demi findfont
    dup length dict begin
	{1 index /FID ne {def} {pop pop} ifelse} forall
	/Encoding isolatin1encoding def
    currentdict end
definefont pop
/Bookman-DemiItalic-latin1
    /Bookman-DemiItalic findfont
    dup length dict begin
	{1 index /FID ne {def} {pop pop} ifelse} forall
	/Encoding isolatin1encoding def
    currentdict end
definefont pop
/Courier-latin1
    /Courier findfont
    dup length dict begin
	{1 index /FID ne {def} {pop pop} ifelse} forall
	/Encoding isolatin1encoding def
    currentdict end
definefont pop
/Courier-Oblique-latin1
    /Courier-Oblique findfont
    dup length dict begin
	{1 index /FID ne {def} {pop pop} ifelse} forall
	/Encoding isolatin1encoding def
    currentdict end
definefont pop
/Courier-Bold-latin1
    /Courier-Bold findfont
    dup length dict begin
	{1 index /FID ne {def} {pop pop} ifelse} forall
	/Encoding isolatin1encoding def
    currentdict end
definefont pop
/Courier-BoldOblique-latin1
    /Courier-BoldOblique findfont
    dup length dict begin
	{1 index /FID ne {def} {pop pop} ifelse} forall
	/Encoding isolatin1encoding def
    currentdict end
definefont pop
/Helvetica-latin1
    /Helvetica findfont
    dup length dict begin
	{1 index /FID ne {def} {pop pop} ifelse} forall
	/Encoding isolatin1encoding def
    currentdict end
definefont pop
/Helvetica-Oblique-latin1
    /Helvetica-Oblique findfont
    dup length dict begin
	{1 index /FID ne {def} {pop pop} ifelse} forall
	/Encoding isolatin1encoding def
    currentdict end
definefont pop
/Helvetica-Bold-latin1
    /Helvetica-Bold findfont
    dup length dict begin
	{1 index /FID ne {def} {pop pop} ifelse} forall
	/Encoding isolatin1encoding def
    currentdict end
definefont pop
/Helvetica-BoldOblique-latin1
    /Helvetica-BoldOblique findfont
    dup length dict begin
	{1 index /FID ne {def} {pop pop} ifelse} forall
	/Encoding isolatin1encoding def
    currentdict end
definefont pop
/Helvetica-Narrow-latin1
    /Helvetica-Narrow findfont
    dup length dict begin
	{1 index /FID ne {def} {pop pop} ifelse} forall
	/Encoding isolatin1encoding def
    currentdict end
definefont pop
/Helvetica-Narrow-Oblique-latin1
    /Helvetica-Narrow-Oblique findfont
    dup length dict begin
	{1 index /FID ne {def} {pop pop} ifelse} forall
	/Encoding isolatin1encoding def
    currentdict end
definefont pop
/Helvetica-Narrow-Bold-latin1
    /Helvetica-Narrow-Bold findfont
    dup length dict begin
	{1 index /FID ne {def} {pop pop} ifelse} forall
	/Encoding isolatin1encoding def
    currentdict end
definefont pop
/Helvetica-Narrow-BoldOblique-latin1
    /Helvetica-Narrow-BoldOblique findfont
    dup length dict begin
	{1 index /FID ne {def} {pop pop} ifelse} forall
	/Encoding isolatin1encoding def
    currentdict end
definefont pop
/NewCenturySchlbk-Roman-latin1
    /NewCenturySchlbk-Roman findfont
    dup length dict begin
	{1 index /FID ne {def} {pop pop} ifelse} forall
	/Encoding isolatin1encoding def
    currentdict end
definefont pop
/NewCenturySchlbk-Italic-latin1
    /NewCenturySchlbk-Italic findfont
    dup length dict begin
	{1 index /FID ne {def} {pop pop} ifelse} forall
	/Encoding isolatin1encoding def
    currentdict end
definefont pop
/NewCenturySchlbk-Bold-latin1
    /NewCenturySchlbk-Bold findfont
    dup length dict begin
	{1 index /FID ne {def} {pop pop} ifelse} forall
	/Encoding isolatin1encoding def
    currentdict end
definefont pop
/NewCenturySchlbk-BoldItalic-latin1
    /NewCenturySchlbk-BoldItalic findfont
    dup length dict begin
	{1 index /FID ne {def} {pop pop} ifelse} forall
	/Encoding isolatin1encoding def
    currentdict end
definefont pop
/Palatino-Roman-latin1
    /Palatino-Roman findfont
    dup length dict begin
	{1 index /FID ne {def} {pop pop} ifelse} forall
	/Encoding isolatin1encoding def
    currentdict end
definefont pop
/Palatino-Italic-latin1
    /Palatino-Italic findfont
    dup length dict begin
	{1 index /FID ne {def} {pop pop} ifelse} forall
	/Encoding isolatin1encoding def
    currentdict end
definefont pop
/Palatino-Bold-latin1
    /Palatino-Bold findfont
    dup length dict begin
	{1 index /FID ne {def} {pop pop} ifelse} forall
	/Encoding isolatin1encoding def
    currentdict end
definefont pop
/Palatino-BoldItalic-latin1
    /Palatino-BoldItalic findfont
    dup length dict begin
	{1 index /FID ne {def} {pop pop} ifelse} forall
	/Encoding isolatin1encoding def
    currentdict end
definefont pop
/Symbol-latin1
    /Symbol findfont
definefont pop
/ZapfChancery-MediumItalic-latin1
    /ZapfChancery-MediumItalic findfont
    dup length dict begin
	{1 index /FID ne {def} {pop pop} ifelse} forall
	/Encoding isolatin1encoding def
    currentdict end
definefont pop
/ZapfDingbats-latin1
    /ZapfDingbats findfont
    dup length dict begin
	{1 index /FID ne {def} {pop pop} ifelse} forall
	/Encoding isolatin1encoding def
    currentdict end
definefont pop
28.346000 -28.346000 scale
-17.450000 -6.987500 translate
%%EndProlog


0.100000 slw
[] 0 sd
[] 0 sd
1 slj
0.000000 0.000000 0.000000 srgb
n 18.000000 -7.112500 m 34.500000 -7.112500 l s
n 18.000000 6.937500 m 34.500000 6.937500 l s
n 18.000000 -6.612500 0.500000 0.500000 180.000000 270.000000 ellipse s
n 34.500000 -6.612500 0.500000 0.500000 270.000000 360.000000 ellipse s
n 17.500000 -6.612500 m 17.500000 6.437500 l s
n 35.000000 -6.612500 m 35.000000 6.437500 l s
n 18.000000 6.437500 0.500000 0.500000 90.000000 180.000000 ellipse s
n 34.500000 6.437500 0.500000 0.500000 0.000000 90.000000 ellipse s
0.350000 slw
[] 0 sd
[] 0 sd
0 slc
0.980392 0.490196 0.490196 srgb
n 18.816024 1.371983 m 29.183976 -5.971983 l s
0.350000 slw
[] 0 sd
n 18.000000 1.950000 m 18.163205 1.834397 l s
n 18.272008 1.757328 m 18.435213 1.641724 l s
n 18.544016 1.564655 m 18.707221 1.449052 l s
0.350000 slw
[] 0 sd
n 30.000000 -6.550000 m 29.836795 -6.434397 l s
n 29.727992 -6.357328 m 29.564787 -6.241724 l s
n 29.455984 -6.164655 m 29.292779 -6.049052 l s
0.350000 slw
[] 0 sd
[] 0 sd
0 slc
n 28.366930 5.466015 m 33.483170 -5.691015 l s
0.350000 slw
[] 0 sd
n 27.950100 6.375000 m 28.033466 6.193203 l s
n 28.089043 6.072005 m 28.172409 5.890208 l s
n 28.227987 5.769010 m 28.311353 5.587213 l s
0.350000 slw
[] 0 sd
n 33.900000 -6.600000 m 33.816634 -6.418203 l s
n 33.761057 -6.297005 m 33.677691 -6.115208 l s
n 33.622113 -5.994010 m 33.538747 -5.812213 l s
/Helvetica-latin1 ff 0.740833 scf sf
0.000000 0.000000 0.000000 srgb
(p1) dup sw 2 div 28.000000 ex sub 3.082083 m
 gs 1 -1 sc sh gr
0.100000 slw
[] 0 sd
[] 0 sd
0 slc
n 29.050000 4.000000 m 33.505935 -5.609641 l s
0.100000 slw
[] 0 sd
0 slj
0 slc
n 29.050000 4.000000 m 28.936598 3.947416 28.875780 3.781431 28.928364 3.668029 c 28.980948 3.554627 29.146933 3.493809 29.260335 3.546393 c 29.373737 3.598977 29.434555 3.764962 29.381971 3.878364 c 29.329387 3.991766 29.163402 4.052584 29.050000 4.000000 c ef
n 29.050000 4.000000 m 28.936598 3.947416 28.875780 3.781431 28.928364 3.668029 c 28.980948 3.554627 29.146933 3.493809 29.260335 3.546393 c 29.373737 3.598977 29.434555 3.764962 29.381971 3.878364 c 29.329387 3.991766 29.163402 4.052584 29.050000 4.000000 c s
0.100000 slw
[] 0 sd
0 slj
0 slc
n 33.569436 -5.152296 m 33.552968 -5.711070 l 33.115829 -5.362631 l s
0.050000 slw
[] 0 sd
[] 0 sd
0 slj
0 slc
n 32.050000 -2.500000 m 33.550000 -2.500000 30.550000 1.000000 32.050000 1.000000 c s
0.050000 slw
[] 0 sd
[] 0 sd
0 slj
0 slc
n 29.050000 4.000000 m 30.550000 4.000000 30.550000 1.000000 32.050000 1.000000 c s
0.050000 slw
[] 0 sd
[] 0 sd
0 slj
0 slc
n 28.050000 -1.500000 m 28.050000 -2.500000 24.050000 -1.500000 24.050000 -2.500000 c s
0.050000 slw
[] 0 sd
[] 0 sd
0 slj
0 slc
n 28.050000 -1.500000 m 28.050000 -2.500000 32.050000 -1.500000 32.050000 -2.500000 c s
/Helvetica-latin1 ff 0.740833 scf sf
(dlines) dup sw 2 div 28.050000 ex sub -0.930260 m
 gs 1 -1 sc sh gr
0.200000 slw
[0.200000] 0 sd
[0.400000] 0 sd
0 slc
n 24.050000 -2.500000 m 32.050000 -2.500000 l s
0.200000 slw
[] 0 sd
0 slj
0 slc
n 24.050000 -2.500000 m 24.050000 -2.625000 24.175000 -2.750000 24.300000 -2.750000 c 24.425000 -2.750000 24.550000 -2.625000 24.550000 -2.500000 c 24.550000 -2.375000 24.425000 -2.250000 24.300000 -2.250000 c 24.175000 -2.250000 24.050000 -2.375000 24.050000 -2.500000 c ef
n 24.050000 -2.500000 m 24.050000 -2.625000 24.175000 -2.750000 24.300000 -2.750000 c 24.425000 -2.750000 24.550000 -2.625000 24.550000 -2.500000 c 24.550000 -2.375000 24.425000 -2.250000 24.300000 -2.250000 c 24.175000 -2.250000 24.050000 -2.375000 24.050000 -2.500000 c s
0.200000 slw
[] 0 sd
0 slj
0 slc
n 32.050000 -2.500000 m 32.050000 -2.375000 31.925000 -2.250000 31.800000 -2.250000 c 31.675000 -2.250000 31.550000 -2.375000 31.550000 -2.500000 c 31.550000 -2.625000 31.675000 -2.750000 31.800000 -2.750000 c 31.925000 -2.750000 32.050000 -2.625000 32.050000 -2.500000 c ef
n 32.050000 -2.500000 m 32.050000 -2.375000 31.925000 -2.250000 31.800000 -2.250000 c 31.675000 -2.250000 31.550000 -2.375000 31.550000 -2.500000 c 31.550000 -2.625000 31.675000 -2.750000 31.800000 -2.750000 c 31.925000 -2.750000 32.050000 -2.625000 32.050000 -2.500000 c s
/Helvetica-latin1 ff 0.740833 scf sf
(f1) dup sw 2 div 32.600000 ex sub 1.082083 m
 gs 1 -1 sc sh gr
0.100000 slw
[] 0 sd
[] 0 sd
0 slc
n 20.000000 0.500000 m 27.367128 -4.683823 l s
0.100000 slw
[] 0 sd
0 slj
0 slc
n 20.000000 0.500000 m 19.928068 0.397771 19.958364 0.223610 20.060593 0.151678 c 20.162821 0.079745 20.336983 0.110041 20.408915 0.212270 c 20.480847 0.314499 20.450551 0.488660 20.348322 0.560593 c 20.246094 0.632525 20.071932 0.602229 20.000000 0.500000 c ef
n 20.000000 0.500000 m 19.928068 0.397771 19.958364 0.223610 20.060593 0.151678 c 20.162821 0.079745 20.336983 0.110041 20.408915 0.212270 c 20.480847 0.314499 20.450551 0.488660 20.348322 0.560593 c 20.246094 0.632525 20.071932 0.602229 20.000000 0.500000 c s
0.100000 slw
[] 0 sd
0 slj
0 slc
n 27.193514 -4.255974 m 27.458564 -4.748162 l 26.905784 -4.664889 l s
0.050000 slw
[] 0 sd
[] 0 sd
0 slj
0 slc
n 24.000000 -2.500000 m 24.500000 -1.000000 22.500000 -1.000000 23.000000 0.000000 c s
0.050000 slw
[] 0 sd
[] 0 sd
0 slj
0 slc
n 20.000000 0.500000 m 21.000000 1.500000 22.000000 -1.000000 23.000000 0.000000 c s
/Helvetica-latin1 ff 0.740833 scf sf
(f2) dup sw 2 div 23.050000 ex sub 0.582083 m
 gs 1 -1 sc sh gr
/Helvetica-latin1 ff 0.740833 scf sf
(p2) dup sw 2 div 20.000000 ex sub 1.569740 m
 gs 1 -1 sc sh gr
0.050000 slw
[] 0 sd
[] 0 sd
0 slc
n 25.205700 -2.501390 m 26.000000 -3.000000 l s
0.050000 slw
[] 0 sd
[] 0 sd
0 slc
n 31.500000 -3.500000 m 32.500000 -3.500000 l s
0.050000 slw
[] 0 sd
[] 0 sd
0 slc
n 25.000000 -3.000000 m 26.000000 -3.000000 l s
0.050000 slw
[] 0 sd
[] 0 sd
0 slc
n 31.074700 -2.519070 m 31.507500 -3.497530 l s
/Helvetica-latin1 ff 0.740833 scf sf
(fp1) dup sw 2 div 33.200000 ex sub -2.417917 m
 gs 1 -1 sc sh gr
/Helvetica-latin1 ff 0.740833 scf sf
(fp2) dup sw 2 div 23.600000 ex sub -3.267917 m
 gs 1 -1 sc sh gr
/Helvetica-latin1 ff 0.740833 scf sf
(v2) dup sw 2 div 27.000000 ex sub -5.417917 m
 gs 1 -1 sc sh gr
/Helvetica-latin1 ff 0.740833 scf sf
(v1) dup sw 2 div 32.600100 ex sub -5.842917 m
 gs 1 -1 sc sh gr
/Helvetica-latin1 ff 0.740833 scf sf
(o1) dup sw 2 div 25.000000 ex sub 4.082083 m
 gs 1 -1 sc sh gr
0.100000 slw
[] 0 sd
[] 0 sd
0 slc
n 24.000000 5.000000 m 24.000000 2.723607 l s
0.100000 slw
[] 0 sd
0 slj
0 slc
n 24.250000 3.111803 m 24.000000 2.611803 l 23.750000 3.111803 l s
0.100000 slw
[] 0 sd
[] 0 sd
0 slc
n 24.000000 5.000000 m 26.276393 5.000000 l s
0.100000 slw
[] 0 sd
0 slj
0 slc
n 25.888197 5.250000 m 26.388197 5.000000 l 25.888197 4.750000 l s
0.100000 slw
[] 0 sd
[] 0 sd
0 slc
n 24.000000 5.000000 m 23.158114 5.841886 l s
0.100000 slw
[] 0 sd
0 slj
0 slc
n 23.255834 5.390613 m 23.079057 5.920943 l 23.609387 5.744166 l s
(o2) dup sw 2 div 19.850000 ex sub -2.667917 m
 gs 1 -1 sc sh gr
0.100000 slw
[] 0 sd
[] 0 sd
0 slc
n 18.850000 -1.750000 m 18.850000 -4.026393 l s
0.100000 slw
[] 0 sd
0 slj
0 slc
n 19.100000 -3.638197 m 18.850000 -4.138197 l 18.600000 -3.638197 l s
0.100000 slw
[] 0 sd
[] 0 sd
0 slc
n 18.850000 -1.750000 m 21.126393 -1.750000 l s
0.100000 slw
[] 0 sd
0 slj
0 slc
n 20.738197 -1.500000 m 21.238197 -1.750000 l 20.738197 -2.000000 l s
0.100000 slw
[] 0 sd
[] 0 sd
0 slc
n 18.850000 -1.750000 m 18.008114 -0.908114 l s
0.100000 slw
[] 0 sd
0 slj
0 slc
n 18.105834 -1.359387 m 17.929057 -0.829057 l 18.459387 -1.005834 l s
0.050000 slw
[0.200000] 0 sd
[0.200000] 0 sd
0 slc
n 18.850100 -1.725000 m 20.100100 0.325000 l s
0.050000 slw
[0.200000] 0 sd
[0.200000] 0 sd
0 slc
n 29.200100 3.825000 m 24.000000 5.000000 l s
/Helvetica-latin1 ff 0.740833 scf sf
(l1) dup sw 2 div 29.500000 ex sub 6.082083 m
 gs 1 -1 sc sh gr
(l2) dup sw 2 div 30.500000 ex sub -5.917917 m
 gs 1 -1 sc sh gr
showpage
